Processes: 337 total, 2 running, 335 sleeping, 1136 threads 
2018/06/27 09:15:01
Load Avg: 1.29, 1.39, 1.50 
CPU usage: 11.47% user, 44.26% sys, 44.26% idle 
SharedLibs: 181M resident, 55M data, 31M linkedit.
MemRegions: 44225 total, 1123M resident, 87M private, 414M shared.
PhysMem: 4241M used (1300M wired), 109M unused.
VM: 1569G vsize, 1113M framework vsize, 39934(0) swapins, 62914(0) swapouts.
Networks: packets: 3105232/3860M in, 1514004/146M out.
Disks: 1096317/16G read, 923055/9394M written.

PID    COMMAND          %CPU TIME     #TH   #WQ #PORTS MEM    PURG   CMPRS  PGRP  PPID  STATE    BOOSTS        %CPU_ME %CPU_OTHRS UID FAULTS   COW    MSGSENT   MSGRECV   SYSBSD    SYSMACH   CSW        PAGEINS IDLEW    POWER INSTRS CYCLES USER               #MREGS RPRVT VPRVT VSIZE KPRVT KSHRD
32808  top              0.0  00:00.29 1/1   0   14+    1556K+ 0B     0B     32805 32805 running  *0[1+]        0.00000 0.00000    0   1191+    142+   120666+   60332+    1518+     62521+    135+       2+      0        0.0   0      0      root               N/A    N/A   N/A   N/A   N/A   N/A  
32805  zsh              0.0  00:00.02 1     0   19+    528K+  0B     0B     32805 32804 sleeping *0[1+]        0.00000 0.00000    501 879+     227+   97+       37+       8560+     195+      135+       18+     0        0.0   0      0      lawrencechin       N/A    N/A   N/A   N/A   N/A   N/A  
32804  cron             0.0  00:00.00 1     0   8+     256K+  0B     0B     149   149   sleeping *0[1+]        0.00000 0.00000    0   136+     56+    12+       6+        19+       16+       2+         0       0        0.0   0      0      root               N/A    N/A   N/A   N/A   N/A   N/A  
32775  com.apple.audio. 0.0  00:00.02 2     2   17+    788K+  0B     0B     32775 1     sleeping *0[2+]        0.00000 0.00000    501 2370+    151+   104+      34+       460+      197+      85+        13+     5        0.0   0      0      lawrencechin       N/A    N/A   N/A   N/A   N/A   N/A  
32773  com.apple.WebKit 0.0  00:27.76 18    3   276+   263M+  3244K+ 0B     32773 1     sleeping *0[1959+]     0.00000 0.00000    501 134394+  4379+  76305+    34507+    96282+    127816+   76740+     4097+   11775    0.0   0      0      lawrencechin       N/A    N/A   N/A   N/A   N/A   N/A  
32711  mdworker         0.0  00:00.06 4     1   51+    2932K+ 0B     0B     32711 1     sleeping *0[1+]        0.00000 0.00000    501 3318+    201+   570+      245+      1995+     586+      243+       0       2        0.0   0      0      lawrencechin       N/A    N/A   N/A   N/A   N/A   N/A  
32674  mdworker         0.0  00:00.06 3     1   42+    2892K+ 0B     0B     32674 1     sleeping *0[1+]        0.00000 0.00000    89  3190+    198+   533+      227+      2043+     531+      119+       0       2        0.0   0      0      _spotlight         N/A    N/A   N/A   N/A   N/A   N/A  
32657  quicklookd       0.0  00:00.15 4     1   84+    4316K+ 32K+   0B     32657 1     sleeping  0[0]         0.00000 0.00000    501 4723+    259+   326+      90+       2965+     773+      463+       29+     18       0.0   0      0      lawrencechin       N/A    N/A   N/A   N/A   N/A   N/A  
32548  com.apple.WebKit 0.0  00:00.33 5     1   73+    7840K+ 68K+   0B     32548 1     sleeping *1+[1+]       0.00000 0.00000    501 5935+    1012+  840+      262+      14928+    3245+     2874+      51+     277      0.0   0      0      lawrencechin       N/A    N/A   N/A   N/A   N/A   N/A  
32483  VisualizerServic 0.0  00:00.23 3     1   143+   1536K+ 0B     3496K+ 32483 1     sleeping *0[27+]       0.00000 0.00000    501 5158+    288+   1403+     352+      5018+     3280+     1820+      25+     172      0.0   0      0      lawrencechin       N/A    N/A   N/A   N/A   N/A   N/A  
32472  iTunes           0.0  00:53.86 25    2   667+   53M+   144K+  44M+   32472 1     sleeping *0[97+]       0.00000 0.00000    501 146209+  5033+  142979+   22111+    352508+   287946+   343020+    7798+   3097     0.0   0      0      lawrencechin       N/A    N/A   N/A   N/A   N/A   N/A  
30386  netbiosd         0.0  00:00.09 2     2   25+    672K+  0B     1644K+ 30386 1     sleeping *0[1+]        0.00000 0.00000    222 2926+    175+   113+      29+       1676+     215+      796+       67+     72       0.0   0      0      _netbios           N/A    N/A   N/A   N/A   N/A   N/A  
29997  CoreServicesUIAg 0.0  00:00.38 3     1   138+   2272K+ 0B     1044K+ 29997 1     sleeping *0[1+]        0.00000 0.00000    501 4670+    259+   2924+     473+      10233+    9066+     7788+      20+     968      0.0   0      0      lawrencechin       N/A    N/A   N/A   N/A   N/A   N/A  
25709  com.apple.ColorS 0.0  00:00.01 2     2   25+    12K+   0B     640K+  25709 1     sleeping *0[1+]        0.00000 0.00000    501 1359+    138+   115+      35+       396+      224+      126+       0       1        0.0   0      0      lawrencechin       N/A    N/A   N/A   N/A   N/A   N/A  
25708  colorsync.userag 0.0  00:00.03 2     1   51+    388K+  0B     652K+  25708 1     sleeping *0[1+]        0.00000 0.00000    501 1826+    148+   200+      72+       848+      482+      263+       1+      0        0.0   0      0      lawrencechin       N/A    N/A   N/A   N/A   N/A   N/A  
24602  com.apple.WebKit 0.0  00:00.74 4     1   75+    604K+  0B     2916K+ 24602 1     sleeping *2+[1+]       0.00000 0.00000    501 5746+    243+   4362+     386+      28339+    17261+    16097+     1+      2255     0.0   0      0      lawrencechin       N/A    N/A   N/A   N/A   N/A   N/A  
23941  com.apple.WebKit 0.0  00:02.72 5     2   87+    2204K+ 0B     3468K+ 23941 1     sleeping *2+[1+]       0.00000 0.00000    501 12071+   264+   5558+     949+      68658+    22196+    42165+     29+     7185     0.0   0      0      lawrencechin       N/A    N/A   N/A   N/A   N/A   N/A  
23334  zsh              0.0  00:00.03 1     0   8+     8192B+ 0B     664K+  23334 23321 sleeping *0[1+]        0.00000 0.00000    501 2292+    1667+  76+       38+       2936+     48+       156+       0       0        0.0   0      0      lawrencechin       N/A    N/A   N/A   N/A   N/A   N/A  
23321  zsh              0.0  00:00.45 1     0   19+    12K+   0B     2016K+ 23321 16901 sleeping *0[1+]        0.00000 0.00000    501 6591+    1908+  159+      72+       144167+   180+      1516+      39+     0        0.0   0      0      lawrencechin       N/A    N/A   N/A   N/A   N/A   N/A  
22731  com.apple.Charac 0.0  00:00.03 2     1   35+    348K+  0B     948K+  22731 1     sleeping *0[1+]        0.00000 0.00000    501 2966+    158+   168+      73+       695+      391+      237+       8+      0        0.0   0      0      lawrencechin       N/A    N/A   N/A   N/A   N/A   N/A  
22726  com.apple.toneli 0.0  00:00.02 2     2   29+    328K+  0B     424K+  22726 1     sleeping  0[0]         0.00000 0.00000    501 1859+    131+   159+      69+       623+      340+      200+       0       0        0.0   0      0      lawrencechin       N/A    N/A   N/A   N/A   N/A   N/A  
22723  IMRemoteURLConne 0.0  00:00.21 4     2   76+    716K+  0B     2084K+ 22723 1     sleeping *0[9+]        0.00000 0.00000    501 5438+    218+   593+      1166+     7790+     2267+     3488+      8+      249      0.0   0      0      lawrencechin       N/A    N/A   N/A   N/A   N/A   N/A  
22721  CMFSyncAgent     0.0  00:00.04 2     1   47+    576K+  0B     500K+  22721 1     sleeping *0[3+]        0.00000 0.00000    501 2343+    142+   258+      115+      894+      573+      343+       4+      9        0.0   0      0      lawrencechin       N/A    N/A   N/A   N/A   N/A   N/A  
21974  QuickLookUIServi 0.0  00:05.04 3     1   216+   5560K+ 24M+   1788K+ 21974 1     sleeping *0[372+]      0.00000 0.00000    501 201658+  336+   24590+    7684+     33926+    50012+    29692+     136+    2140     0.0   0      0      lawrencechin       N/A    N/A   N/A   N/A   N/A   N/A  
21708  tzd              0.0  00:00.06 2     1   42+    356K+  0B     920K+  21708 1     sleeping  0[0]         0.00000 0.00000    0   4729+    208+   144+      77+       1174+     357+      264+       72+     7        0.0   0      0      root               N/A    N/A   N/A   N/A   N/A   N/A  
21447  ReportCrash      0.0  00:01.88 4     1   79+    4160K+ 4096B+ 1456K+ 21447 1     sleeping  0[0]         0.00000 0.00000    501 24814+   212+   17320+    7494+     37172+    21898+    16484+     9156+   24       0.0   0      0      lawrencechin       N/A    N/A   N/A   N/A   N/A   N/A  
20786  com.apple.appsto 0.0  00:00.01 2     2   26+    12K+   0B     588K+  20786 1     sleeping *0[1+]        0.00000 0.00000    501 1351+    129+   124+      37+       408+      258+      113+       1+      1        0.0   0      0      lawrencechin       N/A    N/A   N/A   N/A   N/A   N/A  
20572  syspolicyd       0.0  00:01.58 2     1   57+    2012K+ 12K+   1712K+ 20572 1     sleeping *0[897+]      0.00000 0.00000    0   8690+    192+   2411+     2284+     46682+    10264+    5478+      18+     98       0.0   0      0      root               N/A    N/A   N/A   N/A   N/A   N/A  
20540  softwareupdate_d 0.0  00:00.16 2     1   56+    356K+  0B     2564K+ 20540 1     sleeping  0[0]         0.00000 0.00000    200 4223+    200+   501+      195+      15872+    835+      758+       10+     16       0.0   0      0      _softwareupdate    N/A    N/A   N/A   N/A   N/A   N/A  
20304  distnoted        0.0  00:00.06 2     1   29+    340K+  0B     1500K+ 20304 1     sleeping *0[1+]        0.00000 0.00000    205 1614+    103+   608+      289+      2007+     754+      806+       6+      38       0.0   0      0      _locationd         N/A    N/A   N/A   N/A   N/A   N/A  
18896  com.apple.Commer 0.0  00:02.83 4     3   64+    560K+  0B     10M+   18896 1     sleeping *0[2+]        0.00000 0.00000    501 36554+   289+   1678+     1919+     67331+    4557+     45181+     400+    8140     0.0   0      0      lawrencechin       N/A    N/A   N/A   N/A   N/A   N/A  
16929  zsh              0.0  00:00.05 1     0   8+     352K+  0B     320K+  16929 16906 sleeping *0[1+]        0.00000 0.00000    501 3423+    1779+  106+      53+       4034+     63+       257+       1+      0        0.0   0      0      lawrencechin       N/A    N/A   N/A   N/A   N/A   N/A  
16906  zsh              0.0  00:00.51 1     0   19+    824K+  0B     1236K+ 16906 16901 sleeping *0[1+]        0.00000 0.00000    501 9486+    2626+  213+      99+       146441+   207+      1414+      99+     0        0.0   0      0      lawrencechin       N/A    N/A   N/A   N/A   N/A   N/A  
16901  tmux             0.0  00:32.52 1     0   12+    648K+  0B     548K+  16901 1     sleeping *0[1+]        0.00000 0.00000    501 1109+    347+   52+       12+       642979+   34+       159556+    99+     12628    0.0   0      0      lawrencechin       N/A    N/A   N/A   N/A   N/A   N/A  
16898  tmux             0.0  00:00.01 1     0   13+    36K+   0B     788K+  16898 16415 sleeping *0[1+]        0.00000 0.00000    501 625+     191+   34+       14+       564+      66+       83+        99+     0        0.0   0      0      lawrencechin       N/A    N/A   N/A   N/A   N/A   N/A  
16643  rtcreportingd    0.0  00:02.43 2     1   46+    504K+  0B     3036K+ 16643 1     sleeping *0[1+]        0.00000 0.00000    0   11902+   186+   439+      189+      56138+    831+      38536+     59+     10932    0.0   0      0      root               N/A    N/A   N/A   N/A   N/A   N/A  
16459  AssetCacheLocato 0.0  00:02.35 4     2   62+    736K+  0B     2884K+ 16459 1     sleeping *0[11+]       0.00000 0.00000    235 13494+   193+   572+      1334+     89900+    2173+     44086+     26+     8731     0.0   0      0      _assetcache        N/A    N/A   N/A   N/A   N/A   N/A  
16444  ReportCrash      0.0  00:00.55 4     1   76+    388K+  0B     3288K+ 16444 1     sleeping  0[0]         0.00000 0.00000    0   8571+    202+   4440+     1863+     12630+    6285+     4078+      2019+   22       0.0   0      0      root               N/A    N/A   N/A   N/A   N/A   N/A  
16428  zsh              0.0  00:00.01 1     0   8+     8192B+ 0B     660K+  16428 16415 sleeping *0[1+]        0.00000 0.00000    501 837+     320+   22+       11+       952+      21+       43+        0       0        0.0   0      0      lawrencechin       N/A    N/A   N/A   N/A   N/A   N/A  
16415  zsh              0.0  00:00.27 1     0   19+    12K+   0B     1968K+ 16415 16414 sleeping *0[1+]        0.00000 0.00000    501 3141+    834+   108+      43+       130464+   187+      287+       0       0        0.0   0      0      lawrencechin       N/A    N/A   N/A   N/A   N/A   N/A  
16414  login            0.0  00:00.03 2     1   30+    12K+   0B     1796K+ 16414 16157 sleeping *0[8+]        0.00000 0.00000    0   1830+    188+   132+      32+       1245+     264+      161+       0       3        0.0   0      0      root               N/A    N/A   N/A   N/A   N/A   N/A  
16157  Terminal         0.0  04:10.40 6     1   244+   7636K+ 1328K+ 23M+   16157 1     sleeping *0[1657+]     0.00000 0.00000    501 325116+  6277+  788435+   379178+   21931952+ 1781720+  885579+    1083+   20120    0.0   0      0      lawrencechin       N/A    N/A   N/A   N/A   N/A   N/A  
16154  com.apple.MediaL 0.0  00:01.38 2     1   90+    2396K+ 0B     11M+   16154 1     sleeping *0[46+]       0.00000 0.00000    501 18726+   995+   1586+     1716+     24170+    4276+     6335+      955+    153      0.0   0      0      lawrencechin       N/A    N/A   N/A   N/A   N/A   N/A  
16147  system_installd  0.0  06:23.70 2     1   73+    700K+  0B     44M+   16147 1     sleeping *0[8+]        0.00000 0.00000    0   380921+  29872+ 7684+     3041+     6680234+  224790+   1910876+   3223+   566      0.0   0      0      root               N/A    N/A   N/A   N/A   N/A   N/A  
16146  installd         0.0  00:00.27 2     1   44+    792K+  0B     1784K+ 16146 1     sleeping *0[5+]        0.00000 0.00000    0   6332+    190+   405+      1309+     9204+     1869+     2985+      9+      74       0.0   0      0      root               N/A    N/A   N/A   N/A   N/A   N/A  
15753  com.apple.sbd    0.0  00:02.35 4     2   85+    5700K+ 0B     1880K+ 15753 1     sleeping *0[34+]       0.00000 0.00000    501 21916+   241+   1418+     1757+     76738+    5179+     46069+     184+    7997     0.0   0      0      lawrencechin       N/A    N/A   N/A   N/A   N/A   N/A  
15748  sysdiagnose      0.0  00:00.07 2     2   33+    792K+  0B     580K+  15748 1     sleeping *0[1+]        0.00000 0.00000    0   2779+    185+   201+      133+      3690+     454+      489+       89+     11       0.0   0      0      root               N/A    N/A   N/A   N/A   N/A   N/A  
15740  com.apple.iTunes 0.0  00:00.25 2     2   53+    764K+  0B     1208K+ 15740 1     sleeping  0[0]         0.00000 0.00000    501 6096+    201+   368+      1432+     8498+     1881+     3289+      68+     72       0.0   0      0      lawrencechin       N/A    N/A   N/A   N/A   N/A   N/A  
15713  com.apple.photom 0.0  00:00.44 2     2   73+    1008K+ 0B     6160K+ 15713 1     sleeping *0[2+]        0.00000 0.00000    501 9771+    580+   832+      315+      35062+    1333+     2725+      83+     29       0.0   0      0      lawrencechin       N/A    N/A   N/A   N/A   N/A   N/A  
15700  media-indexer    0.0  00:18.02 2     1   46+    396K+  0B     22M+   15700 1     sleeping  0[0]         0.00000 0.00000    501 59680+   195+   254+      126+      294212+   627+      29163+     773+    16       0.0   0      0      lawrencechin       N/A    N/A   N/A   N/A   N/A   N/A  
15696  EscrowSecurityAl 0.0  00:00.10 2     1   59+    972K+  0B     604K+  15696 1     sleeping  0[0]         0.00000 0.00000    501 7539+    179+   270+      121+      8804+     637+      669+       67+     4        0.0   0      0      lawrencechin       N/A    N/A   N/A   N/A   N/A   N/A  
15694  IMAutomaticHisto 0.0  00:00.14 2     2   74+    408K+  0B     1576K+ 15694 1     sleeping  0[0]         0.00000 0.00000    501 7242+    193+   590+      271+      10917+    1280+     1120+      20+     19       0.0   0      0      lawrencechin       N/A    N/A   N/A   N/A   N/A   N/A  
15692  silhouette       0.0  00:00.47 2     1   55+    584K+  0B     5784K+ 15692 1     sleeping  0[0]         0.00000 0.00000    501 6599+    178+   406+      169+      61787+    1470+     2223+      86+     11       0.0   0      0      lawrencechin       N/A    N/A   N/A   N/A   N/A   N/A  
15691  periodic-wrapper 0.0  00:00.01 2     2   26+    216K+  0B     112K+  15691 1     sleeping *0[1+]        0.00000 0.00000    0   522+     84+    85+       35+       312+      185+      80+        1+      0        0.0   0      0      root               N/A    N/A   N/A   N/A   N/A   N/A  
15185  DiskUnmountWatch 0.0  00:00.03 2     2   25+    12K+   0B     604K+  15185 1     sleeping  0[0]         0.00000 0.00000    501 1608+    129+   133+      51+       1673+     251+      125+       6+      8        0.0   0      0      lawrencechin       N/A    N/A   N/A   N/A   N/A   N/A  
15179  USBAgent         0.0  00:00.04 2     2   31+    12K+   0B     2128K+ 15179 1     sleeping  0[0]         0.00000 0.00000    501 2870+    157+   178+      58+       578+      326+      315+       4+      9        0.0   0      0      lawrencechin       N/A    N/A   N/A   N/A   N/A   N/A  
9255   diskspaced       0.0  00:00.06 2     2   53+    412K+  0B     872K+  9255  1     sleeping *0[1+]        0.00000 0.00000    501 3678+    172+   271+      143+      4479+     590+      591+       5+      5        0.0   0      0      lawrencechin       N/A    N/A   N/A   N/A   N/A   N/A  
6661   PrintUITool      0.0  00:00.32 2     1   57+    384K+  0B     5116K+ 6661  1     sleeping *0[6+]        0.00000 0.00000    501 6403+    191+   496+      233+      1319+     1071+     992+       35+     7        0.0   0      0      lawrencechin       N/A    N/A   N/A   N/A   N/A   N/A  
6538   recentsd         0.0  00:00.32 2     1   69+    2020K+ 0B     1344K+ 6538  1     sleeping *0[44+]       0.00000 0.00000    501 8805+    201+   1292+     552+      4080+     2680+     1754+      123+    35       0.0   0      0      lawrencechin       N/A    N/A   N/A   N/A   N/A   N/A  
5743   com.apple.Notes. 0.0  00:00.60 2     1   44+    1696K+ 0B     2220K+ 5743  1     sleeping *0[226+]      0.00000 0.00000    501 4966+    215+   1360+     398+      6077+     3153+     1780+      16+     11       0.0   0      0      lawrencechin       N/A    N/A   N/A   N/A   N/A   N/A  
5742   swcd             0.0  00:00.17 2     1   54+    496K+  0B     2632K+ 5742  1     sleeping *0[9+]        0.00000 0.00000    501 5303+    157+   498+      1847+     6593+     2496+     2597+      15+     42       0.0   0      0      lawrencechin       N/A    N/A   N/A   N/A   N/A   N/A  
4418   LookupViewServic 0.0  00:06.84 8     2   227+   11M+   0B     7660K+ 4418  1     sleeping *0[560+]      0.00000 0.00000    501 50674+   534+   31896+    10447+    106321+   80007+    70999+     962+    7511     0.0   0      0      lawrencechin       N/A    N/A   N/A   N/A   N/A   N/A  
3922   reversetemplated 0.0  00:00.21 3     1   46+    1860K+ 0B     8176K+ 3922  1     sleeping *0[9+]        0.00000 0.00000    501 12635+   218+   471+      219+      5664+     1025+     817+       241+    26       0.0   0      0      lawrencechin       N/A    N/A   N/A   N/A   N/A   N/A  
3921   com.apple.audio. 0.0  00:00.02 2     2   16+    8192B+ 0B     792K+  3921  1     sleeping *0[2+]        0.00000 0.00000    501 2371+    151+   104+      34+       455+      198+      69+        0       2        0.0   0      0      lawrencechin       N/A    N/A   N/A   N/A   N/A   N/A  
3735   com.apple.audio. 0.0  00:00.02 2     2   23+    12K+   0B     804K+  3735  1     sleeping *0[2+]        0.00000 0.00000    501 2380+    153+   119+      37+       482+      229+      72+        0       4        0.0   0      0      lawrencechin       N/A    N/A   N/A   N/A   N/A   N/A  
3733   com.apple.access 0.0  00:00.12 2     2   32+    512K+  0B     308K+  3733  1     sleeping *0[234+]      0.00000 0.00000    501 3037+    130+   2273+     1060+     6192+     2445+     2597+      1+      72       0.0   0      0      lawrencechin       N/A    N/A   N/A   N/A   N/A   N/A  
3730   com.apple.speech 0.0  01:35.63 2     1   115+   5828K+ 0B     37M+   3730  1     sleeping *0[1+]        0.00000 0.00000    501 3279432+ 264+   254182+   20939+    6676087+  444607+   424556+    23558+  26068    0.0   0      0      lawrencechin       N/A    N/A   N/A   N/A   N/A   N/A  
3318   mdwrite          0.0  00:00.13 2     2   64+    616K+  0B     1532K+ 3318  1     sleeping *0[1+]        0.00000 0.00000    501 3628+    194+   434+      292+      3398+     848+      1334+      26+     25       0.0   0      0      lawrencechin       N/A    N/A   N/A   N/A   N/A   N/A  
3317   cupsd            0.0  00:03.09 3     1   46+    236K+  0B     2328K+ 3317  1     sleeping  0[0]         0.00000 0.00000    0   4028+    152+   379+      190+      66911+    881+      79215+     296+    40251    0.0   0      0      root               N/A    N/A   N/A   N/A   N/A   N/A  
3316   AssetCacheTether 0.0  00:00.06 2     2   23+    372K+  0B     2076K+ 3316  1     sleeping *0[1+]        0.00000 0.00000    0   3919+    183+   111+      109+      1085+     280+      366+       30+     2        0.0   0      0      root               N/A    N/A   N/A   N/A   N/A   N/A  
3315   writeconfig      0.0  00:00.03 2     2   19+    12K+   0B     924K+  3315  1     sleeping *0[2+]        0.00000 0.00000    0   1973+    149+   86+       33+       729+      159+      136+       23+     1        0.0   0      0      root               N/A    N/A   N/A   N/A   N/A   N/A  
3313   cacheAssistant   0.0  00:00.04 2     2   29+    368K+  0B     752K+  3313  1     sleeping *0[1+]        0.00000 0.00000    0   3604+    170+   140+      117+      2718+     330+      313+       1+      6        0.0   0      0      root               N/A    N/A   N/A   N/A   N/A   N/A  
3295   com.apple.Safari 0.0  00:00.08 2     1   41+    388K+  0B     1080K+ 3295  1     sleeping *0[9+]        0.00000 0.00000    501 7611+    195+   285+      160+      1324+     604+      522+       22+     5        0.0   0      0      lawrencechin       N/A    N/A   N/A   N/A   N/A   N/A  
2412   AssetCacheManage 0.0  00:00.06 2     2   25+    580K+  0B     1588K+ 2412  1     sleeping *0[9+]        0.00000 0.00000    0   2837+    145+   207+      77+       1023+     353+      365+       27+     9        0.0   0      0      root               N/A    N/A   N/A   N/A   N/A   N/A  
1760   com.apple.quickl 0.0  00:00.09 2     1   54+    384K+  0B     984K+  1760  1     sleeping *0[17+]       0.00000 0.00000    501 4730+    178+   598+      264+      4020+     1103+     804+       39+     11       0.0   0      0      lawrencechin       N/A    N/A   N/A   N/A   N/A   N/A  
1404   com.apple.Commer 0.0  00:00.10 2     2   40+    672K+  0B     2188K+ 1404  1     sleeping *0[2+]        0.00000 0.00000    501 5279+    198+   239+      146+      1253+     485+      439+       68+     10       0.0   0      0      lawrencechin       N/A    N/A   N/A   N/A   N/A   N/A  
1403   storeinstalld    0.0  00:00.04 2     1   33+    440K+  0B     596K+  1403  1     sleeping  0[0]         0.00000 0.00000    0   4013+    169+   162+      122+      934+      418+      370+       5+      4        0.0   0      0      root               N/A    N/A   N/A   N/A   N/A   N/A  
724    storeuid         0.0  00:02.98 3     1   164+   2152K+ 0B     3492K+ 724   1     sleeping *0[528+]      0.00000 0.00000    501 10990+   319+   21072+    2393+     71009+    74375+    60340+     46+     8888     0.0   0      0      lawrencechin       N/A    N/A   N/A   N/A   N/A   N/A  
715    com.apple.Safari 0.0  00:00.33 2     1   40+    692K+  0B     2760K+ 715   1     sleeping *0[431+]      0.00000 0.00000    501 5721+    295+   1982+     573+      9884+     1942+     1762+      7+      10       0.0   0      0      lawrencechin       N/A    N/A   N/A   N/A   N/A   N/A  
669    contactsdonation 0.0  00:00.61 2     1   114+   2336K+ 0B     3436K+ 669   1     sleeping *0[30+]       0.00000 0.00000    501 13858+   369+   1312+     492+      23906+    2848+     3440+      473+    80       0.0   0      0      lawrencechin       N/A    N/A   N/A   N/A   N/A   N/A  
646    OSDUIHelper      0.0  00:04.66 3     1   157+   2640K+ 0B     17M+   646   1     sleeping *0[397+]      0.00000 0.00000    501 22889+   2842+  29833+    3293+     76404+    91197+    69944+     24+     9263     0.0   0      0      lawrencechin       N/A    N/A   N/A   N/A   N/A   N/A  
626    KeychainSyncingO 0.0  00:00.10 2     1   63+    304K+  0B     1084K+ 626   1     sleeping *0[27+]       0.00000 0.00000    501 4506+    183+   855+      477+      1530+     2030+     914+       82+     23       0.0   0      0      lawrencechin       N/A    N/A   N/A   N/A   N/A   N/A  
625    ContextService   0.0  00:02.75 2     2   45+    4256K+ 0B     5488K+ 625   1     sleeping *0[64+]       0.00000 0.00000    501 22119+   727+   1132+     297+      72491+    1757+     7558+      8462+   46       0.0   0      0      lawrencechin       N/A    N/A   N/A   N/A   N/A   N/A  
616    AppleSpell       0.0  00:01.98 2     1   98+    1756K+ 0B     15M+   616   1     sleeping *0[1+]        0.00000 0.00000    501 23554+   351+   2496+     808+      102205+   5365+     10017+     4329+   105      0.0   0      0      lawrencechin       N/A    N/A   N/A   N/A   N/A   N/A  
614    videosubscriptio 0.0  00:00.37 2     2   33+    4224K+ 0B     2916K+ 614   1     sleeping *0[6+]        0.00000 0.00000    501 9213+    156+   211+      146+      2180+     455+      1318+      57+     7        0.0   0      0      lawrencechin       N/A    N/A   N/A   N/A   N/A   N/A  
613    com.apple.Safari 0.0  00:08.18 5     2   194+   10M+   0B     16M+   613   1     sleeping *0[475+]      0.00000 0.00000    501 47254+   1226+  7942+     6220+     183772+   19343+    105501+    180+    13948    0.0   0      0      lawrencechin       N/A    N/A   N/A   N/A   N/A   N/A  
611    parsecd          0.0  00:04.42 3     2   106+   4092K+ 0B     3520K+ 611   1     sleeping *0[87+]       0.00000 0.00000    501 30880+   317+   5610+     2723+     104730+   18180+    68972+     635+    12784    0.0   0      0      lawrencechin       N/A    N/A   N/A   N/A   N/A   N/A  
573    storedownloadd   0.0  00:00.15 2     1   51+    804K+  0B     2272K+ 573   1     sleeping *0[14+]       0.00000 0.00000    501 6281+    214+   460+      221+      4312+     895+      972+       110+    21       0.0   0      0      lawrencechin       N/A    N/A   N/A   N/A   N/A   N/A  
572    ViewBridgeAuxili 0.0  00:13.85 2     1   95+    1980K+ 0B     516K+  572   1     sleeping *0[43137+]    0.00000 0.00000    501 8534+    197+   405152+   132597+   170973+   460296+   246792+    27+     9318     0.0   0      0      lawrencechin       N/A    N/A   N/A   N/A   N/A   N/A  
570    com.apple.BKAgen 0.0  00:01.10 2     1   74+    7960K+ 0B     8032K+ 570   1     sleeping *0[17+]       0.00000 0.00000    501 21529+   217+   886+      423+      22410+    1915+     4719+      695+    36       0.0   0      0      lawrencechin       N/A    N/A   N/A   N/A   N/A   N/A  
569    fpsd             0.0  00:00.12 2     1   21+    300K+  0B     552K+  569   1     sleeping *0[113+]      0.00000 0.00000    265 2264+    135+   810+      205+      1064+     1436+     493+       76+     0        0.0   0      0      _fpsd              N/A    N/A   N/A   N/A   N/A   N/A  
568    AudioComponentRe 0.0  00:00.32 2     1   70+    1512K+ 32K+   2436K+ 568   1     sleeping *0[76+]       0.00000 0.00000    501 7884+    466+   1442+     697+      16068+    3414+     1667+      7+      37       0.0   0      0      lawrencechin       N/A    N/A   N/A   N/A   N/A   N/A  
566    rcd              0.0  00:00.84 2     1   111+   908K+  0B     672K+  566   1     sleeping *0[1+]        0.00000 0.00000    501 8274+    192+   4944+     2698+     15453+    5289+     8972+      20+     430      0.0   0      0      lawrencechin       N/A    N/A   N/A   N/A   N/A   N/A  
554    com.apple.Dictio 0.0  00:00.21 2     2   34+    376K+  0B     1860K+ 554   1     sleeping *0[3+]        0.00000 0.00000    501 3308+    139+   2727+     571+      10478+    5486+     3445+      7+      13       0.0   0      0      lawrencechin       N/A    N/A   N/A   N/A   N/A   N/A  
544    com.apple.Safari 0.0  00:03.62 3     1   43+    684K+  0B     4040K+ 544   1     sleeping *0[416+]      0.00000 0.00000    501 32166+   226+   5725+     1973+     66592+    12583+    16311+     184+    185      0.0   0      0      lawrencechin       N/A    N/A   N/A   N/A   N/A   N/A  
542    com.apple.hiserv 0.0  00:00.29 2     2   41+    76K+   0B     808K+  542   1     sleeping *0[433+]      0.00000 0.00000    501 3715+    141+   5060+     1374+     5315+     5728+     4066+      5+      67       0.0   0      0      lawrencechin       N/A    N/A   N/A   N/A   N/A   N/A  
505    distnoted        0.0  00:00.14 2     1   30+    416K+  0B     1588K+ 505   1     sleeping *0[1+]        0.00000 0.00000    89  2438+    103+   1467+     824+      7065+     1861+     2094+      3+      121      0.0   0      0      _spotlight         N/A    N/A   N/A   N/A   N/A   N/A  
486    deleted          0.0  00:00.64 2     2   61+    604K+  0B     3480K+ 486   1     sleeping *0[19+]       0.00000 0.00000    501 7569+    193+   9110+     3628+     32179+    11301+    3953+      180+    30       0.0   0      0      lawrencechin       N/A    N/A   N/A   N/A   N/A   N/A  
485    mdworker         0.0  00:03.30 2     1   43+    432K+  0B     3764K+ 485   1     sleeping *0[1+]        0.00000 0.00000    89  5470+    203+   404+      239+      93982+    1127+     10775+     0       70       0.0   0      0      _spotlight         N/A    N/A   N/A   N/A   N/A   N/A  
484    mdworker         0.0  00:00.18 2     1   48+    444K+  0B     2408K+ 484   1     sleeping *0[1+]        0.00000 0.00000    501 4747+    200+   411+      239+      7086+     1143+     1006+      2+      36       0.0   0      0      lawrencechin       N/A    N/A   N/A   N/A   N/A   N/A  
460    taskgated        0.0  00:00.40 1     0   19+    880K+  0B     456K+  460   1     sleeping *0[1+]        0.00000 0.00000    0   3498+    132+   291+      22+       23107+    2355+     681+       2+      27       0.0   0      0      root               N/A    N/A   N/A   N/A   N/A   N/A  
455    AssetCache       0.0  00:00.13 2     1   51+    444K+  0B     3100K+ 455   1     sleeping *0[7+]        0.00000 0.00000    235 4755+    247+   328+      181+      2299+     708+      687+       218+    7        0.0   0      0      _assetcache        N/A    N/A   N/A   N/A   N/A   N/A  
454    AssetCacheLocato 0.0  00:03.22 4     2   65+    892K+  0B     2812K+ 454   1     sleeping *0[215+]      0.00000 0.00000    501 20603+   192+   1805+     2625+     107685+   4798+     73986+     140+    14246    0.0   0      0      lawrencechin       N/A    N/A   N/A   N/A   N/A   N/A  
453    com.apple.PhotoI 0.0  00:00.06 2     2   41+    364K+  0B     912K+  453   1     sleeping  0[0]         0.00000 0.00000    501 6090+    185+   193+      136+      1134+     443+      466+       1+      1        0.0   0      0      lawrencechin       N/A    N/A   N/A   N/A   N/A   N/A  
452    ScopedBookmarkAg 0.0  00:00.47 2     2   44+    720K+  0B     1276K+ 452   1     sleeping *0[5+]        0.00000 0.00000    501 5780+    151+   2374+     3103+     18464+    4371+     6786+      5+      112      0.0   0      0      lawrencechin       N/A    N/A   N/A   N/A   N/A   N/A  
451    com.apple.photom 0.0  00:03.27 5     2   76+    2684K+ 0B     5976K+ 451   1     sleeping *0[247+]      0.00000 0.00000    501 25871+   698+   2663+     1109+     85687+    5580+     56386+     290+    10403    0.0   0      0      lawrencechin       N/A    N/A   N/A   N/A   N/A   N/A  
450    mediaremoteagent 0.0  00:00.75 2     1   33+    600K+  0B     452K+  450   1     sleeping *0[1090+]     0.00000 0.00000    501 4874+    157+   3462+     2172+     17008+    3691+     6797+      3+      482      0.0   0      0      lawrencechin       N/A    N/A   N/A   N/A   N/A   N/A  
448    trustd           0.0  00:03.41 3     2   42+    984K+  192K+  2316K+ 448   1     sleeping *0[911+]      0.00000 0.00000    89  7170+    165+   5057+     1209+     82573+    25074+    7745+      25+     277      0.0   0      0      _spotlight         N/A    N/A   N/A   N/A   N/A   N/A  
446    LaterAgent       0.0  00:02.99 3     1   137+   1848K+ 0B     1428K+ 446   1     sleeping *0[1+]        0.00000 0.00000    501 8900+    261+   20245+    1837+     70643+    76402+    64373+     14+     9279     0.0   0      0      lawrencechin       N/A    N/A   N/A   N/A   N/A   N/A  
437    com.apple.speech 0.0  00:06.79 2     1   48+    6888K+ 0B     11M+   437   1     sleeping *0[1+]        0.00000 0.00000    0   122711+  221+   9856+     4769+     256194+   22621+    27228+     6219+   309      0.0   0      0      root               N/A    N/A   N/A   N/A   N/A   N/A  
427    diskmanagementd  0.0  00:02.42 19    1   261+   3220K+ 28K+   7644K+ 427   1     sleeping *0[1+]        0.00000 0.00000    0   109846+  440+   29891+    11174+    27951+    35297+    15273+     136+    220      0.0   0      0      root               N/A    N/A   N/A   N/A   N/A   N/A  
423    storeassetd      0.0  00:03.22 4     2   126+   2936K+ 0B     5308K+ 423   1     sleeping *0[64+]       0.00000 0.00000    501 27616+   268+   2344+     2155+     77867+    5451+     49273+     1072+   7121     0.0   0      0      lawrencechin       N/A    N/A   N/A   N/A   N/A   N/A  
422    com.apple.CloudD 0.0  00:01.60 2     1   70+    1252K+ 0B     872K+  422   1     sleeping *2164+[4+]    0.00000 0.00000    501 8671+    197+   18554+    4317+     29321+    22340+    7097+      294+    201      0.0   0      0      lawrencechin       N/A    N/A   N/A   N/A   N/A   N/A  
421    dmd              0.0  00:00.10 2     1   35+    196K+  0B     3172K+ 421   1     sleeping  0[0]         0.00000 0.00000    0   5220+    396+   387+      344+      1693+     1385+     902+       52+     15       0.0   0      0      root               N/A    N/A   N/A   N/A   N/A   N/A  
419    callservicesd    0.0  00:01.75 2     1   199+   1744K+ 0B     9040K+ 419   1     sleeping *0[109+]      0.00000 0.00000    501 23699+   495+   9693+     7800+     35487+    19902+    14713+     675+    664      0.0   0      0      lawrencechin       N/A    N/A   N/A   N/A   N/A   N/A  
417    photolibraryd    0.0  00:53.71 2     2   117+   3528K+ 64K+   12M+   417   1     sleeping *0[1791+]     0.00000 0.00000    501 111715+  1481+  241360+   78784+    1501412+  735416+   566644+    2792+   347      0.0   0      0      lawrencechin       N/A    N/A   N/A   N/A   N/A   N/A  
416    storelegacy      0.0  00:00.10 2     1   49+    688K+  0B     2064K+ 416   1     sleeping *0[6+]        0.00000 0.00000    501 5836+    193+   449+      231+      1331+     900+      677+       12+     9        0.0   0      0      lawrencechin       N/A    N/A   N/A   N/A   N/A   N/A  
414    suhelperd        0.0  00:00.40 2     1   58+    800K+  0B     2244K+ 414   1     sleeping *0[134+]      0.00000 0.00000    0   7180+    208+   1621+     1588+     9604+     3199+     3587+      47+     77       0.0   0      0      root               N/A    N/A   N/A   N/A   N/A   N/A  
413    softwareupdated  0.0  01:35.54 3     1   185+   3724K+ 0B     149M+  413   1     sleeping *295+[20+]    0.00000 0.00000    200 370710+  79759+ 50518+    20036+    2097961+  105066+   647722+    1060+   15426    0.0   0      0      _softwareupdate    N/A    N/A   N/A   N/A   N/A   N/A  
412    pbs              0.0  00:00.29 2     2   41+    556K+  0B     1016K+ 412   1     sleeping *0[57+]       0.00000 0.00000    501 7328+    152+   887+      444+      11346+    1301+     1757+      45+     67       0.0   0      0      lawrencechin       N/A    N/A   N/A   N/A   N/A   N/A  
411    softwareupdate_n 0.0  00:00.09 2     1   54+    684K+  0B     1756K+ 411   1     sleeping *0[1+]        0.00000 0.00000    501 4713+    177+   580+      237+      1498+     1294+     1237+      23+     12       0.0   0      0      lawrencechin       N/A    N/A   N/A   N/A   N/A   N/A  
410    followupd        0.0  00:00.08 2     1   43+    288K+  0B     820K+  410   1     sleeping *0[2+]        0.00000 0.00000    501 4863+    170+   332+      134+      1639+     650+      522+       67+     11       0.0   0      0      lawrencechin       N/A    N/A   N/A   N/A   N/A   N/A  
409    photoanalysisd   0.0  02:15.51 2     1   120+   8116K+ 0B     28M+   409   1     sleeping *0[1212+]     0.00000 0.00000    501 722384+  3505+  197675+   55607+    1874133+  361711+   452432+    20566+  4197     0.0   0      0      lawrencechin       N/A    N/A   N/A   N/A   N/A   N/A  
408    corespotlightd   0.0  00:11.26 3     1   92+    4772K+ 0B     5548K+ 408   1     sleeping *3+[846+]     0.00000 0.00000    501 71832+   234+   33701+    12526+    120859+   53480+    57783+     8465+   1734     0.0   0      0      lawrencechin       N/A    N/A   N/A   N/A   N/A   N/A  
407    ContainerMetadat 0.0  00:00.53 2     1   47+    412K+  0B     1256K+ 407   1     sleeping *0[174+]      0.00000 0.00000    501 8562+    196+   2728+     733+      14924+    4182+     2953+      24+     12       0.0   0      0      lawrencechin       N/A    N/A   N/A   N/A   N/A   N/A  
405    dprivacyd        0.0  00:00.25 2     2   66+    660K+  0B     2028K+ 405   1     sleeping *0[477+]      0.00000 0.00000    0   4005+    164+   2169+     673+      6339+     2407+     2547+      79+     149      0.0   0      0      root               N/A    N/A   N/A   N/A   N/A   N/A  
404    com.apple.Safari 0.0  00:24.57 3     3   64+    2160K+ 0B     2428K+ 404   1     sleeping *0[39+]       0.00000 0.00000    501 127947+  194+   2176+     951+      118518+   4441+     96969+     9469+   14253    0.0   0      0      lawrencechin       N/A    N/A   N/A   N/A   N/A   N/A  
402    SafeEjectGPUServ 0.0  00:00.09 2     2   44+    356K+  0B     716K+  402   1     sleeping *0[1+]        0.00000 0.00000    501 3328+    169+   17799+    7453+     962+      11418+    339+       6+      4        0.0   0      0      lawrencechin       N/A    N/A   N/A   N/A   N/A   N/A  
401    SafeEjectGPUAgen 0.0  00:00.02 2     2   36+    12K+   0B     928K+  401   1     sleeping *0[1+]        0.00000 0.00000    501 2333+    155+   151+      52+       500+      304+      70+        0       0        0.0   0      0      lawrencechin       N/A    N/A   N/A   N/A   N/A   N/A  
400    WiFiAgent        0.0  00:02.94 4     1   158+   1544K+ 0B     1516K+ 400   1     sleeping *0[631+]      0.00000 0.00000    501 9434+    257+   21947+    2342+     71456+    76484+    61299+     41+     9306     0.0   0      0      lawrencechin       N/A    N/A   N/A   N/A   N/A   N/A  
399    APFSUserAgent    0.0  00:00.03 2     2   32+    376K+  0B     380K+  399   1     sleeping *0[3+]        0.00000 0.00000    501 2221+    131+   239+      164+      849+      436+      340+       5+      2        0.0   0      0      lawrencechin       N/A    N/A   N/A   N/A   N/A   N/A  
398    networkservicepr 0.0  00:00.33 2     1   56+    984K+  0B     2544K+ 398   1     sleeping *0[1+]        0.00000 0.00000    501 5613+    184+   455+      2933+     13959+    4096+     7253+      113+    134      0.0   0      0      lawrencechin       N/A    N/A   N/A   N/A   N/A   N/A  
397    CrashReporterSup 0.0  00:00.02 2     1   31+    328K+  0B     456K+  397   1     sleeping *0[1+]        0.00000 0.00000    0   2200+    133+   153+      121+      791+      407+      263+       2+      1        0.0   0      0      root               N/A    N/A   N/A   N/A   N/A   N/A  
395    CoreLocationAgen 0.0  00:03.79 3     1   149+   2296K+ 0B     2016K+ 395   1     sleeping *0[1+]        0.00000 0.00000    501 11258+   288+   20623+    4487+     101331+   79923+    88189+     34+     9363     0.0   0      0      lawrencechin       N/A    N/A   N/A   N/A   N/A   N/A  
381    iTunesHelper     0.0  00:02.79 4     2   119+   884K+  0B     1204K+ 381   1     sleeping *0[2+]        0.00000 0.00000    501 6616+    187+   27285+    4193+     74180+    85379+    61697+     48+     9006     0.0   0      0      lawrencechin       N/A    N/A   N/A   N/A   N/A   N/A  
380    Flux             0.0  01:50.44 6     2   262+   5440K+ 0B     20M+   380   1     sleeping *0[429+]      0.00000 0.00000    501 469963+  3250+  297063+   45048+    181388+   997674+   518151+    1251+   84102    0.0   0      0      lawrencechin       N/A    N/A   N/A   N/A   N/A   N/A  
379    PAH_Extension    0.0  00:04.20 4     2   206+   2756K+ 0B     1848K+ 379   1     sleeping *0[4056+]     0.00000 0.00000    501 12027+   309+   40825+    9330+     71280+    96122+    67469+     25+     5776     0.0   0      0      lawrencechin       N/A    N/A   N/A   N/A   N/A   N/A  
377    webinspectord    0.0  00:02.26 2     1   41+    608K+  0B     1752K+ 377   1     sleeping *0[4091+]     0.00000 0.00000    501 9520+    175+   33627+    9599+     36233+    65383+    27320+     30+     337      0.0   0      0      lawrencechin       N/A    N/A   N/A   N/A   N/A   N/A  
375    WiFiProxy        0.0  00:00.64 2     1   59+    1004K+ 0B     1020K+ 375   1     sleeping *0[272+]      0.00000 0.00000    501 7713+    194+   5935+     4022+     19793+    8261+     9055+      7+      271      0.0   0      0      lawrencechin       N/A    N/A   N/A   N/A   N/A   N/A  
374    com.apple.WebKit 0.0  09:02.13 10    3   250+   29M+   0B     19M+   374   1     sleeping *2+[1+]       0.00000 0.00000    501 1326656+ 1095+  912146+   233268+   14899759+ 3134672+  5726831+   121224+ 32072    0.0   0      0      lawrencechin       N/A    N/A   N/A   N/A   N/A   N/A  
370    Spectacle        0.0  00:04.80 6     2   185+   2912K+ 0B     18M+   370   1     sleeping *0[860+]      0.00000 0.00000    501 20933+   2904+  29445+    4237+     95324+    91109+    76232+     963+    10683    0.0   0      0      lawrencechin       N/A    N/A   N/A   N/A   N/A   N/A  
369    ctkd             0.0  00:00.04 2     2   31+    344K+  0B     1884K+ 369   1     sleeping *0[1+]        0.00000 0.00000    501 3519+    161+   161+      126+      915+      385+      369+       0       2        0.0   0      0      lawrencechin       N/A    N/A   N/A   N/A   N/A   N/A  
368    Itsycal          0.0  00:28.52 5     2   198+   6724K+ 0B     5348K+ 368   1     sleeping *0[2209+]     0.00000 0.00000    501 53302+   698+   134410+   46037+    251482+   378591+   203047+    248+    13837    0.0   0      0      lawrencechin       N/A    N/A   N/A   N/A   N/A   N/A  
367    ctkahp           0.0  00:00.06 2     1   47+    92K+   0B     2236K+ 367   1     sleeping *0[59+]       0.00000 0.00000    501 3789+    165+   513+      188+      1208+     833+      418+       4+      8        0.0   0      0      lawrencechin       N/A    N/A   N/A   N/A   N/A   N/A  
366    backgroundtaskma 0.0  00:00.34 2     2   61+    712K+  0B     1384K+ 366   1     sleeping *0[4+]        0.00000 0.00000    501 5337+    196+   368+      2287+     13711+    2703+     5099+      18+     106      0.0   0      0      lawrencechin       N/A    N/A   N/A   N/A   N/A   N/A  
364    diagnostics_agen 0.0  00:01.72 2     1   71+    1640K+ 0B     1100K+ 364   1     sleeping  0[0]         0.00000 0.00000    501 15130+   213+   9019+     5099+     43367+    13483+    17593+     308+    591      0.0   0      0      lawrencechin       N/A    N/A   N/A   N/A   N/A   N/A  
362    nbagent          0.0  00:03.13 5     2   171+   2192K+ 0B     2032K+ 362   1     sleeping *0[582+]      0.00000 0.00000    501 12693+   284+   21951+    3924+     83662+    78593+    65630+     11+     9396     0.0   0      0      lawrencechin       N/A    N/A   N/A   N/A   N/A   N/A  
361    cloudpaird       0.0  00:00.15 2     1   63+    536K+  0B     2540K+ 361   1     sleeping *0[3+]        0.00000 0.00000    501 7399+    200+   621+      253+      2334+     1143+     1313+      67+     1        0.0   0      0      lawrencechin       N/A    N/A   N/A   N/A   N/A   N/A  
360    AirPlayUIAgent   0.0  00:03.43 3     1   139+   1528K+ 0B     1508K+ 360   1     sleeping *0[365+]      0.00000 0.00000    501 7964+    250+   21789+    1894+     70054+    76567+    61402+     11+     9201     0.0   0      0      lawrencechin       N/A    N/A   N/A   N/A   N/A   N/A  
358    icdd             0.0  00:00.32 2     1   62+    964K+  0B     3364K+ 358   1     sleeping *0[1+]        0.00000 0.00000    501 6577+    203+   2280+     1093+     2475+     3609+     1752+      117+    20       0.0   0      0      lawrencechin       N/A    N/A   N/A   N/A   N/A   N/A  
357    2BUA8C4S2C.com.a 0.0  00:39.68 5     2   368+   9668K+ 0B     41M+   357   1     sleeping *0[1+]        0.00000 0.00000    501 151649+  4965+  122126+   46188+    275104+   480299+   242425+    3761+   27182    0.0   0      0      lawrencechin       N/A    N/A   N/A   N/A   N/A   N/A  
356    dmd              0.0  00:00.17 2     1   51+    760K+  0B     1184K+ 356   1     sleeping *0[19+]       0.00000 0.00000    501 6298+    209+   829+      492+      2177+     2338+     1392+      311+    21       0.0   0      0      lawrencechin       N/A    N/A   N/A   N/A   N/A   N/A  
354    SocialPushAgent  0.0  00:00.14 2     1   50+    272K+  0B     976K+  354   1     sleeping *0[64+]       0.00000 0.00000    501 4722+    168+   1145+     501+      1962+     3056+     1727+      102+    12       0.0   0      0      lawrencechin       N/A    N/A   N/A   N/A   N/A   N/A  
353    karabiner_consol 0.0  00:55.36 5     1   80+    1092K+ 0B     2064K+ 353   1     sleeping *0[1+]        0.00000 0.00000    501 92408+   208+   212412+   2754+     979442+   672956+   640812+    428+    157164   0.0   0      0      lawrencechin       N/A    N/A   N/A   N/A   N/A   N/A  
351    ckkeyrolld       0.0  00:02.90 3     3   74+    1316K+ 0B     2080K+ 351   1     sleeping  0[0]         0.00000 0.00000    501 22675+   224+   482+      2155+     109331+   2971+     71298+     66+     12931    0.0   0      0      lawrencechin       N/A    N/A   N/A   N/A   N/A   N/A  
349    routined         0.0  00:17.29 3     1   151+   7440K+ 0B     3844K+ 349   1     sleeping *0[27408+]    0.00000 0.00000    501 33210+   435+   42237+    31011+    287429+   205911+   94244+     1480+   2102     0.0   0      0      lawrencechin       N/A    N/A   N/A   N/A   N/A   N/A  
348    fileproviderd    0.0  00:01.39 2     1   83+    1208K+ 0B     1232K+ 348   1     sleeping *102+[3+]     0.00000 0.00000    501 8976+    199+   13859+    6288+     48552+    20824+    17377+     99+     228      0.0   0      0      lawrencechin       N/A    N/A   N/A   N/A   N/A   N/A  
346    imklaunchagent   0.0  00:02.27 2     1   117+   872K+  0B     1924K+ 346   1     sleeping *0[1+]        0.00000 0.00000    501 6280+    248+   17536+    712+      67266+    66609+    71721+     0       8855     0.0   0      0      lawrencechin       N/A    N/A   N/A   N/A   N/A   N/A  
345    Spotlight        0.0  00:44.71 7     2   489+   12M+   348K+  32M+   345   1     sleeping *0[971+]      0.00000 0.00000    501 118709+  3429+  126441+   52900+    516762+   376565+   254227+    8410+   10228    0.0   0      0      lawrencechin       N/A    N/A   N/A   N/A   N/A   N/A  
344    commerce         0.0  00:08.01 4     2   107+   5004K+ 0B     5284K+ 344   1     sleeping *0[515+]      0.00000 0.00000    501 41062+   269+   11461+    7645+     202718+   20295+    99646+     814+    14117    0.0   0      0      lawrencechin       N/A    N/A   N/A   N/A   N/A   N/A  
343    ContactsAgent    0.0  00:04.34 3     2   54+    400K+  0B     888K+  343   1     sleeping *0[4+]        0.00000 0.00000    501 21818+   178+   8660+     154+      94888+    34045+    74482+     21+     15606    0.0   0      0      lawrencechin       N/A    N/A   N/A   N/A   N/A   N/A  
342    ProtectedCloudKe 0.0  00:00.18 2     1   103+   1168K+ 0B     1208K+ 342   1     sleeping *0[53+]       0.00000 0.00000    501 7087+    209+   984+      410+      6641+     1882+     1399+      64+     33       0.0   0      0      lawrencechin       N/A    N/A   N/A   N/A   N/A   N/A  
341    nfcd             0.0  00:00.06 2     1   51+    392K+  0B     1028K+ 341   1     sleeping *0[1+]        0.00000 0.00000    260 2688+    197+   266+      147+      1063+     704+      423+       148+    4        0.0   0      0      _applepay          N/A    N/A   N/A   N/A   N/A   N/A  
340    com.apple.geod   0.0  00:06.88 5     2   80+    3172K+ 0B     5576K+ 340   1     sleeping *0[446+]      0.00000 0.00000    501 36748+   304+   5746+     4838+     196353+   19278+    105323+    598+    14769    0.0   0      0      lawrencechin       N/A    N/A   N/A   N/A   N/A   N/A  
339    rapportd         0.0  00:01.33 2     1   83+    832K+  0B     2220K+ 339   1     sleeping *0[1+]        0.00000 0.00000    501 5599+    200+   4841+     1053+     13385+    16680+    12592+     271+    3485     0.0   0      0      lawrencechin       N/A    N/A   N/A   N/A   N/A   N/A  
338    com.apple.Weathe 0.0  00:03.52 3     3   49+    584K+  0B     5604K+ 338   1     sleeping *0[10+]       0.00000 0.00000    501 23435+   224+   573+      250+      98120+    1260+     71708+     66+     13899    0.0   0      0      lawrencechin       N/A    N/A   N/A   N/A   N/A   N/A  
337    com.apple.CloudP 0.0  00:00.88 2     1   63+    1336K+ 0B     5424K+ 337   1     sleeping *0[935+]      0.00000 0.00000    501 12183+   607+   5491+     1957+     18457+    12189+    9119+      122+    395      0.0   0      0      lawrencechin       N/A    N/A   N/A   N/A   N/A   N/A  
335    com.apple.notifi 0.0  00:00.08 2     1   50+    364K+  0B     824K+  335   1     sleeping *0[9+]        0.00000 0.00000    501 4864+    163+   642+      247+      1533+     1320+     631+       12+     6        0.0   0      0      lawrencechin       N/A    N/A   N/A   N/A   N/A   N/A  
334    wirelessproxd    0.0  00:00.44 2     1   61+    1024K+ 0B     1828K+ 334   1     sleeping *0[128+]      0.00000 0.00000    0   5973+    180+   3910+     1177+     8264+     6095+     4156+      191+    344      0.0   0      0      root               N/A    N/A   N/A   N/A   N/A   N/A  
333    IMDPersistenceAg 0.0  00:01.05 2     1   94+    1788K+ 384K+  5056K+ 333   1     sleeping *0[59+]       0.00000 0.00000    501 14881+   326+   3583+     3287+     40163+    15050+    9608+      428+    150      0.0   0      0      lawrencechin       N/A    N/A   N/A   N/A   N/A   N/A  
332    imagent          0.0  00:01.96 2     1   153+   3552K+ 0B     2444K+ 332   1     sleeping *0[1+]        0.00000 0.00000    501 17454+   416+   9904+     6125+     46725+    26317+    21964+     1044+   315      0.0   0      0      lawrencechin       N/A    N/A   N/A   N/A   N/A   N/A  
331    adid             0.0  00:04.38 2     1   33+    2612K+ 0B     468K+  331   1     sleeping *0[2873+]     0.00000 0.00000    265 10890+   153+   25651+    4114+     129701+   44178+    7876+      348+    10       0.0   0      0      _fpsd              N/A    N/A   N/A   N/A   N/A   N/A  
329    nsurlstoraged    0.0  00:40.91 3     2   688+   5228K+ 4096B+ 11M+   329   1     sleeping *0[48777+]    0.00000 0.00000    501 79511+   159+   280688+   88073+    768259+   429726+   310975+    42+     2611     0.0   0      0      lawrencechin       N/A    N/A   N/A   N/A   N/A   N/A  
328    fmfd             0.0  00:00.20 2     1   78+    488K+  0B     3272K+ 328   1     sleeping *0[67+]       0.00000 0.00000    501 7790+    233+   1197+     543+      3155+     2693+     1565+      132+    14       0.0   0      0      lawrencechin       N/A    N/A   N/A   N/A   N/A   N/A  
327    passd            0.0  00:04.05 3     2   128+   1284K+ 0B     3936K+ 327   1     sleeping *0[72+]       0.00000 0.00000    501 25784+   347+   4386+     2603+     103427+   16520+    76997+     632+    14910    0.0   0      0      lawrencechin       N/A    N/A   N/A   N/A   N/A   N/A  
326    suggestd         0.0  00:35.54 21    20  473+   8716K+ 40K+   12M+   326   1     sleeping *1698+[6893+] 0.00000 0.00000    501 69090+   482+   94768+    66465+    700702+   420668+   254201+    11307+  1110     0.0   0      0      lawrencechin       N/A    N/A   N/A   N/A   N/A   N/A  
325    sharingd         0.0  00:11.82 3     1   241+   5128K+ 0B     4240K+ 325   1     sleeping *0[343+]      0.00000 0.00000    501 24339+   509+   99216+    46254+    207407+   342877+   143010+    798+    17234    0.0   0      0      lawrencechin       N/A    N/A   N/A   N/A   N/A   N/A  
324    SafariBookmarksS 0.0  00:32.70 4     2   77+    2592K+ 0B     6880K+ 324   1     sleeping *0[1+]        0.00000 0.00000    501 25887+   269+   99714+    6448+     753035+   362992+   521033+    694+    52826    0.0   0      0      lawrencechin       N/A    N/A   N/A   N/A   N/A   N/A  
323    askpermissiond   0.0  00:00.06 2     1   41+    400K+  0B     928K+  323   1     sleeping *0[1+]        0.00000 0.00000    501 5047+    186+   370+      196+      1600+     776+      737+       21+     6        0.0   0      0      lawrencechin       N/A    N/A   N/A   N/A   N/A   N/A  
322    gamed            0.0  00:08.58 5     3   139+   3868K+ 0B     12M+   322   1     sleeping *0[1656+]     0.00000 0.00000    501 57179+   513+   27049+    12944+    212901+   49439+    112026+    1972+   14935    0.0   0      0      lawrencechin       N/A    N/A   N/A   N/A   N/A   N/A  
321    CallHistorySyncH 0.0  00:00.51 2     1   80+    980K+  0B     4016K+ 321   1     sleeping *0[21+]       0.00000 0.00000    501 10687+   351+   1079+     2457+     56331+    4029+     4892+      57+     53       0.0   0      0      lawrencechin       N/A    N/A   N/A   N/A   N/A   N/A  
320    akd              0.0  00:05.63 4     2   113+   2180K+ 0B     2828K+ 320   1     sleeping *0[2434+]     0.00000 0.00000    501 30022+   261+   32257+    12339+    166526+   46984+    83426+     273+    9541     0.0   0      0      lawrencechin       N/A    N/A   N/A   N/A   N/A   N/A  
319    assistantd       0.0  00:01.16 2     1   145+   1660K+ 0B     3448K+ 319   1     sleeping *0[926+]      0.00000 0.00000    501 14531+   385+   6096+     4327+     27177+    15183+    12683+     794+    342      0.0   0      0      lawrencechin       N/A    N/A   N/A   N/A   N/A   N/A  
318    SafariCloudHisto 0.0  00:24.67 3     2   48+    568K+  0B     1060K+ 318   1     sleeping *0[1+]        0.00000 0.00000    501 6824+    186+   80411+    241+      597571+   320380+   478280+    41+     52653    0.0   0      0      lawrencechin       N/A    N/A   N/A   N/A   N/A   N/A  
317    keyboardservices 0.0  00:00.20 2     1   51+    532K+  0B     1716K+ 317   1     sleeping *0[5+]        0.00000 0.00000    501 7729+    189+   676+      310+      4807+     1441+     1959+      122+    30       0.0   0      0      lawrencechin       N/A    N/A   N/A   N/A   N/A   N/A  
316    siriknowledged   0.0  00:00.11 2     2   38+    396K+  0B     1388K+ 316   1     sleeping *0[3+]        0.00000 0.00000    501 7099+    227+   406+      215+      2055+     735+      1080+      78+     5        0.0   0      0      lawrencechin       N/A    N/A   N/A   N/A   N/A   N/A  
313    storeaccountd    0.0  00:00.25 2     1   66+    588K+  0B     2636K+ 313   1     sleeping *0[133+]      0.00000 0.00000    501 6383+    189+   1763+     565+      2919+     2622+     1281+      16+     10       0.0   0      0      lawrencechin       N/A    N/A   N/A   N/A   N/A   N/A  
311    CloudKeychainPro 0.0  00:00.24 2     1   48+    1888K+ 0B     2612K+ 311   1     sleeping *0[19+]       0.00000 0.00000    501 6818+    149+   906+      484+      4059+     1757+     1744+      51+     61       0.0   0      0      lawrencechin       N/A    N/A   N/A   N/A   N/A   N/A  
309    findmydeviced    0.0  00:00.13 2     1   57+    748K+  0B     1124K+ 309   1     sleeping *1+[6+]       0.00000 0.00000    0   6923+    246+   543+      235+      2509+     1155+     1103+      133+    15       0.0   0      0      root               N/A    N/A   N/A   N/A   N/A   N/A  
308    com.apple.Safari 0.0  00:02.71 3     1   44+    2020K+ 148K+  5908K+ 308   1     sleeping *0[1066+]     0.00000 0.00000    501 17552+   1192+  7340+     2823+     100765+   18898+    16761+     102+    742      0.0   0      0      lawrencechin       N/A    N/A   N/A   N/A   N/A   N/A  
307    soagent          0.0  00:01.11 2     1   123+   1716K+ 0B     6596K+ 307   1     sleeping *0[50+]       0.00000 0.00000    501 18498+   510+   2800+     1792+     27318+    7862+     6015+      982+    59       0.0   0      0      lawrencechin       N/A    N/A   N/A   N/A   N/A   N/A  
306    cdpd             0.0  00:00.11 2     1   45+    604K+  0B     780K+  306   1     sleeping *0[39+]       0.00000 0.00000    501 4996+    173+   441+      174+      1238+     810+      480+       45+     1        0.0   0      0      lawrencechin       N/A    N/A   N/A   N/A   N/A   N/A  
304    coreauthd        0.0  00:00.15 2     1   42+    396K+  0B     1024K+ 304   1     sleeping *0[111+]      0.00000 0.00000    501 4471+    185+   1336+     617+      2667+     1449+     958+       15+     22       0.0   0      0      lawrencechin       N/A    N/A   N/A   N/A   N/A   N/A  
303    CallHistoryPlugi 0.0  00:00.48 2     1   74+    684K+  0B     3996K+ 303   1     sleeping *0[3+]        0.00000 0.00000    501 8463+    282+   679+      2650+     57924+    3798+     4942+      54+     44       0.0   0      0      lawrencechin       N/A    N/A   N/A   N/A   N/A   N/A  
302    NotificationCent 0.0  00:15.20 3     1   321+   11M+   0B     20M+   302   1     sleeping *0[577+]      0.00000 0.00000    501 61614+   3216+  87592+    30307+    162429+   236821+   122376+    1698+   10156    0.0   0      0      lawrencechin       N/A    N/A   N/A   N/A   N/A   N/A  
301    CalNCService     0.0  00:28.90 2     1   115+   5232K+ 0B     4320K+ 301   1     sleeping *0[26292+]    0.00000 0.00000    501 60481+   432+   68532+    44688+    587126+   265561+   248011+    628+    1276     0.0   0      0      lawrencechin       N/A    N/A   N/A   N/A   N/A   N/A  
300    com.apple.dock.e 0.0  00:03.82 3     1   158+   2576K+ 0B     2796K+ 300   1     sleeping *0[409+]      0.00000 0.00000    501 13778+   437+   22980+    2324+     74616+    77619+    60647+     137+    9149     0.0   0      0      lawrencechin       N/A    N/A   N/A   N/A   N/A   N/A  
299    usernoted        0.0  00:01.58 2     1   137+   3080K+ 0B     1536K+ 299   1     sleeping *0[1+]        0.00000 0.00000    501 10773+   273+   8794+     5434+     39156+    11605+    17084+     461+    372      0.0   0      0      lawrencechin       N/A    N/A   N/A   N/A   N/A   N/A  
298    filecoordination 0.0  00:01.45 2     2   84+    1044K+ 0B     332K+  298   1     sleeping *0[1+]        0.00000 0.00000    0   9230+    149+   25583+    8750+     33609+    33258+    12721+     74+     360      0.0   0      0      root               N/A    N/A   N/A   N/A   N/A   N/A  
297    useractivityd    0.0  00:02.62 2     1   121+   1376K+ 0B     1980K+ 297   1     sleeping *0[2716+]     0.00000 0.00000    501 14321+   220+   14176+    6050+     49166+    17315+    28913+     201+    2832     0.0   0      0      lawrencechin       N/A    N/A   N/A   N/A   N/A   N/A  
296    accountsd        0.0  00:34.73 4     1   336+   7000K+ 240K+  12M+   296   1     sleeping *2+[2415+]    0.00000 0.00000    501 72031+   1307+  89565+    20379+    546612+   431440+   159845+    1408+   6290     0.0   0      0      lawrencechin       N/A    N/A   N/A   N/A   N/A   N/A  
295    nsurlsessiond    0.0  00:50.61 5     2   123+   5216K+ 0B     2804K+ 295   1     sleeping *41+[102+]    0.00000 0.00000    501 52849+   257+   104172+   37795+    1029256+  204011+   430483+    49+     19128    0.0   0      0      lawrencechin       N/A    N/A   N/A   N/A   N/A   N/A  
293    SubmitDiagInfo   0.0  00:00.20 2     1   44+    404K+  0B     1476K+ 293   1     sleeping  0[0]         0.00000 0.00000    0   5123+    200+   364+      148+      10193+    644+      1008+      117+    9        0.0   0      0      root               N/A    N/A   N/A   N/A   N/A   N/A  
292    secinitd         0.0  00:01.92 2     2   49+    936K+  0B     4480K+ 292   1     sleeping *0[103+]      0.00000 0.00000    501 11365+   200+   1515+     2825+     52451+    4734+     9660+      8+      175      0.0   0      0      lawrencechin       N/A    N/A   N/A   N/A   N/A   N/A  
291    spindump_agent   0.0  00:00.04 2     2   40+    348K+  0B     588K+  291   1     sleeping *0[7+]        0.00000 0.00000    501 2614+    153+   287+      160+      980+      541+      370+       5+      4        0.0   0      0      lawrencechin       N/A    N/A   N/A   N/A   N/A   N/A  
290    fontd            0.0  00:18.87 2     1   123+   3112K+ 128K+  3568K+ 290   1     sleeping *0[55780+]    0.00000 0.00000    501 31974+   204+   273916+   74293+    457053+   267508+   106078+    48+     619      0.0   0      0      lawrencechin       N/A    N/A   N/A   N/A   N/A   N/A  
289    spindump         0.0  00:11.95 3     2   96+    736K+  0B     26M+   289   1     sleeping *0[1+]        0.00000 0.00000    0   851584+  217+   170580+   80991+    96300+    154434+   31579+     5013+   837      0.0   0      0      root               N/A    N/A   N/A   N/A   N/A   N/A  
288    ContactsAccounts 0.0  00:01.92 2     1   110+   672K+  0B     964K+  288   1     sleeping *0[97+]       0.00000 0.00000    501 14399+   168+   13383+    5852+     42368+    27134+    14612+     47+     226      0.0   0      0      lawrencechin       N/A    N/A   N/A   N/A   N/A   N/A  
287    cloudd           0.0  01:52.26 7     1   552+   22M+   768K+  34M+   287   1     sleeping *518+[1+]     0.00000 0.00000    501 169732+  285+   180864+   59549+    1898774+  366973+   872979+    1494+   32009    0.0   0      0      lawrencechin       N/A    N/A   N/A   N/A   N/A   N/A  
286    cloudphotosd     0.0  00:11.34 6     2   236+   5088K+ 0B     14M+   286   1     sleeping *0[1086+]     0.00000 0.00000    501 46713+   833+   35791+    6070+     289970+   94652+    160262+    2273+   25988    0.0   0      0      lawrencechin       N/A    N/A   N/A   N/A   N/A   N/A  
284    identityservices 0.0  00:02.10 6     1   165+   3148K+ 12K+   4972K+ 284   1     sleeping *0[1+]        0.00000 0.00000    501 19378+   492+   6280+     4996+     44957+    21625+    21198+     1445+   799      0.0   0      0      lawrencechin       N/A    N/A   N/A   N/A   N/A   N/A  
282    knowledge-agent  0.0  00:04.42 2     1   67+    2708K+ 0B     15M+   282   1     sleeping *0[1256+]     0.00000 0.00000    501 37558+   222+   3392+     996+      134579+   38628+    21066+     230+    193      0.0   0      0      lawrencechin       N/A    N/A   N/A   N/A   N/A   N/A  
281    CalendarAgent    0.0  02:16.96 4     2   210+   17M+   448K+  9708K+ 281   1     sleeping *0[35301+]    0.00000 0.00000    501 160150+  1245+  791965+   204251+   2330730+  1192016+  611255+    1987+   14850    0.0   0      0      lawrencechin       N/A    N/A   N/A   N/A   N/A   N/A  
280    mapspushd        0.0  00:00.60 3     2   78+    2840K+ 0B     3068K+ 280   1     sleeping *0[30+]       0.00000 0.00000    501 14388+   247+   1236+     2491+     12759+    4751+     7745+      239+    382      0.0   0      0      lawrencechin       N/A    N/A   N/A   N/A   N/A   N/A  
275    secd             0.0  00:20.56 2     2   163+   5212K+ 4604K+ 3852K+ 275   1     sleeping *0[1+]        0.00000 0.00000    501 145377+  31694+ 58846+    20810+    194962+   136214+   41804+     725+    679      0.0   0      0      lawrencechin       N/A    N/A   N/A   N/A   N/A   N/A  
274    pkd              0.0  00:20.12 2     1   98+    2604K+ 0B     1300K+ 274   1     sleeping *0[3121+]     0.00000 0.00000    501 31177+   230+   22835+    8762+     210882+   37975+    37572+     587+    364      0.0   0      0      lawrencechin       N/A    N/A   N/A   N/A   N/A   N/A  
273    tccd             0.0  00:02.64 2     1   57+    2644K+ 12K+   2204K+ 273   1     sleeping *0[619+]      0.00000 0.00000    501 16826+   208+   14350+    7982+     73471+    20820+    18059+     97+     274      0.0   0      0      lawrencechin       N/A    N/A   N/A   N/A   N/A   N/A  
272    iconservicesagen 0.0  00:04.51 2     2   72+    6652K+ 0B     36M+   272   1     sleeping *0[410+]      0.00000 0.00000    501 141875+  24665+ 4947+     1724+     25733+    7664+     11824+     270+    224      0.0   0      0      lawrencechin       N/A    N/A   N/A   N/A   N/A   N/A  
270    pboard           0.0  00:02.83 2     1   98+    1324K+ 0B     2304K+ 270   1     sleeping *0[1+]        0.00000 0.00000    501 5272+    212+   86063+    23016+    167432+   133867+   66990+     25+     378      0.0   0      0      lawrencechin       N/A    N/A   N/A   N/A   N/A   N/A  
269    bird             0.0  00:30.15 2     1   198+   8356K+ 3900K+ 4356K+ 269   1     sleeping *4330+[1+]    0.00000 0.00000    501 95695+   270+   69838+    16235+    732998+   343078+   128696+    1302+   3115     0.0   0      0      lawrencechin       N/A    N/A   N/A   N/A   N/A   N/A  
266    Finder           0.0  01:37.25 5     2   475+   35M+   40K+   24M+   266   1     sleeping *0[1427+]     0.00000 0.00000    501 513211+  4168+  480710+   168472+   1077188+  1191652+  517842+    11086+  13398    0.0   0      0      lawrencechin       N/A    N/A   N/A   N/A   N/A   N/A  
265    SystemUIServer   0.0  00:09.81 3     1   300+   6792K+ 0B     18M+   265   1     sleeping *0[734+]      0.00000 0.00000    501 42964+   2984+  93150+    29227+    121027+   163491+   112101+    370+    11964    0.0   0      0      lawrencechin       N/A    N/A   N/A   N/A   N/A   N/A  
264    Dock             0.0  00:27.47 3     1   328+   11M+   3708K+ 19M+   264   1     sleeping *1+[91+]      0.00000 0.00000    501 233556+  3329+  227722+   71544+    274721+   440812+   306248+    7484+   22500    0.0   0      0      lawrencechin       N/A    N/A   N/A   N/A   N/A   N/A  
263    talagent         0.0  00:03.37 2     1   132+   1624K+ 0B     2732K+ 263   1     sleeping *0[1+]        0.00000 0.00000    501 10850+   276+   20232+    5010+     89626+    78562+    83362+     91+     8852     0.0   0      0      lawrencechin       N/A    N/A   N/A   N/A   N/A   N/A  
262    Mail             0.0  01:26.70 7     1   431+   28M+   448K+  27M+   262   1     sleeping *0[935+]      0.00000 0.00000    501 202296+  3739+  271212+   115029+   1119794+  700970+   573804+    5288+   13018    0.0   0      0      lawrencechin       N/A    N/A   N/A   N/A   N/A   N/A  
260    sharedfilelistd  0.0  00:01.38 2     2   89+    2852K+ 0B     1924K+ 260   1     sleeping *0[659+]      0.00000 0.00000    501 9950+    207+   4555+     3575+     26950+    7768+     8227+      17+     191      0.0   0      0      lawrencechin       N/A    N/A   N/A   N/A   N/A   N/A  
259    Safari Technolog 0.0  16:04.50 11    3   783+   109M+  1596K+ 124M+  259   1     sleeping *0[6879+]     0.00000 0.00000    501 1359093+ 6018+  7050456+  3308473+  10852055+ 24306770+ 10845111+  24596+  60702    0.0   0      0      lawrencechin       N/A    N/A   N/A   N/A   N/A   N/A  
258    lsd              0.0  00:02.73 2     1   284+   1576K+ 0B     2372K+ 258   1     sleeping *0[3159+]     0.00000 0.00000    501 27140+   781+   34287+    17254+    88096+    41862+    31441+     5044+   934      0.0   0      0      lawrencechin       N/A    N/A   N/A   N/A   N/A   N/A  
257    trustd           0.0  00:50.12 5     2   184+   6064K+ 5268K+ 2944K+ 257   1     sleeping *0[11515+]    0.00000 0.00000    501 140383+  7864+  80861+    19512+    826763+   329628+   133330+    67+     4733     0.0   0      0      lawrencechin       N/A    N/A   N/A   N/A   N/A   N/A  
256    com.apple.Ambien 0.0  01:03.18 4     1   70+    596K+  0B     924K+  256   1     sleeping *1+[1+]       0.00000 0.00000    0   5392+    175+   10479+    1718+     7626+     21612+    68441+     51+     44       0.0   0      0      root               N/A    N/A   N/A   N/A   N/A   N/A  
254    distnoted        0.0  00:18.57 3     2   284+   4556K+ 0B     2300K+ 254   1     sleeping *0[1+]        0.00000 0.00000    501 20549+   103+   123681+   53108+    1727103+  107546+   102323+    0       2725     0.0   0      0      lawrencechin       N/A    N/A   N/A   N/A   N/A   N/A  
252    UserEventAgent   0.0  00:11.61 3     1   771+   2816K+ 0B     1140K+ 252   1     sleeping *0[1+]        0.00000 0.00000    501 48443+   284+   109085+   68758+    278095+   260800+   191336+    83+     6235     0.0   0      0      lawrencechin       N/A    N/A   N/A   N/A   N/A   N/A  
251    cfprefsd         0.0  00:14.71 2     2   395+   1672K+ 144K+  7016K+ 251   1     sleeping *0[14137+]    0.00000 0.00000    501 74719+   102+   178672+   43371+    433549+   223332+   104443+    6+      3081     0.0   0      0      lawrencechin       N/A    N/A   N/A   N/A   N/A   N/A  
250    securityd_servic 0.0  00:00.52 2     2   28+    24K+   0B     1928K+ 250   1     sleeping *0[1+]        0.00000 0.00000    0   2142+    135+   374+      126+      634+      322+      201+       3+      3        0.0   0      0      root               N/A    N/A   N/A   N/A   N/A   N/A  
248    GSSCred          0.0  00:00.02 3     3   18+    208K+  0B     404K+  248   1     sleeping *0[1+]        0.00000 0.00000    0   1703+    130+   63+       27+       638+      124+      352+       2+      14       0.0   0      0      root               N/A    N/A   N/A   N/A   N/A   N/A  
244    captiveagent     0.0  00:01.09 4     1   45+    480K+  0B     1736K+ 244   1     sleeping *0[2+]        0.00000 0.00000    258 4754+    151+   314+      2244+     64342+    2749+     7828+      137+    129      0.0   0      0      _captiveagent      N/A    N/A   N/A   N/A   N/A   N/A  
242    apsd             0.0  00:06.25 4     1   172+   3816K+ 12K+   5112K+ 242   1     sleeping *0[1+]        0.00000 0.00000    0   27455+   309+   36440+    14871+    133512+   77001+    50537+     221+    1589     0.0   0      0      root               N/A    N/A   N/A   N/A   N/A   N/A  
241    trustd           0.0  00:00.48 3     2   47+    1692K+ 0B     2724K+ 241   1     sleeping  0[0]         0.00000 0.00000    205 9775+    168+   801+      2424+     14665+    4028+     4530+      37+     141      0.0   0      0      _locationd         N/A    N/A   N/A   N/A   N/A   N/A  
240    sharedfilelistd  0.0  00:00.45 2     2   53+    1004K+ 0B     788K+  240   1     sleeping *0[6+]        0.00000 0.00000    0   6891+    170+   819+      2495+     17627+    3942+     6435+      33+     159      0.0   0      0      root               N/A    N/A   N/A   N/A   N/A   N/A  
239    cfprefsd         0.0  00:00.24 2     2   34+    300K+  0B     268K+  239   1     sleeping *0[1597+]     0.00000 0.00000    205 1233+    103+   7478+     1671+     9052+     8408+     3998+      0       283      0.0   0      0      _locationd         N/A    N/A   N/A   N/A   N/A   N/A  
237    coresymbolicatio 0.0  00:01.00 2     2   30+    216K+  0B     1800K+ 237   1     sleeping *0[4854+]     0.00000 0.00000    0   6667+    144+   35004+    11677+    48254+    35011+    7814+      2135+   261      0.0   0      0      root               N/A    N/A   N/A   N/A   N/A   N/A  
234    coreauthd        0.0  00:00.16 2     1   32+    104K+  0B     1224K+ 234   1     sleeping *0[110+]      0.00000 0.00000    0   4752+    181+   1242+     571+      2530+     1237+     1217+      104+    9        0.0   0      0      root               N/A    N/A   N/A   N/A   N/A   N/A  
233    com.apple.Accoun 0.0  00:00.07 2     2   21+    48K+   0B     692K+  233   1     sleeping *0[90+]       0.00000 0.00000    0   2568+    130+   970+      389+      2487+     1132+     816+       4+      59       0.0   0      0      root               N/A    N/A   N/A   N/A   N/A   N/A  
231    tccd             0.0  00:00.43 2     1   43+    1648K+ 8192B+ 2692K+ 231   1     sleeping *0[31+]       0.00000 0.00000    0   7521+    207+   647+      2435+     16590+    3330+     5505+      2+      147      0.0   0      0      root               N/A    N/A   N/A   N/A   N/A   N/A  
230    systemsoundserve 0.0  00:00.66 2     2   84+    980K+  348K+  2772K+ 230   1     sleeping *0[1+]        0.00000 0.00000    0   9151+    415+   8147+     3686+     11900+    12763+    10539+     234+    691      0.0   0      0      root               N/A    N/A   N/A   N/A   N/A   N/A  
228    secinitd         0.0  00:01.13 2     2   45+    724K+  0B     2844K+ 228   1     sleeping  0[0]         0.00000 0.00000    205 7799+    198+   312+      2233+     64151+    2572+     8002+      0       127      0.0   0      0      _locationd         N/A    N/A   N/A   N/A   N/A   N/A  
225    ctkahp           0.0  00:00.06 2     1   30+    36K+   0B     2196K+ 225   1     sleeping *0[57+]       0.00000 0.00000    0   3669+    158+   552+      178+      1327+     838+      458+       5+      10       0.0   0      0      root               N/A    N/A   N/A   N/A   N/A   N/A  
224    com.apple.Perfor 0.0  00:04.17 2     2   69+    652K+  0B     1464K+ 224   1     sleeping *0[5720+]     0.00000 0.00000    0   5995+    139+   19776+    8925+     78540+    17824+    22849+     7+      604      0.0   0      0      root               N/A    N/A   N/A   N/A   N/A   N/A  
219    sandboxd         0.0  00:15.88 3     2   60+    1360K+ 0B     596K+  219   1     sleeping *0[1+]        0.00000 0.00000    0   402249+  160+   105431+   50470+    323478+   116880+   45465+     470+    1482     0.0   0      0      root               N/A    N/A   N/A   N/A   N/A   N/A  
218    com.apple.audio. 0.0  00:00.02 2     2   16+    8192B+ 0B     804K+  218   1     sleeping *0[2+]        0.00000 0.00000    202 2380+    155+   102+      34+       481+      197+      68+        2+      2        0.0   0      0      _coreaudiod        N/A    N/A   N/A   N/A   N/A   N/A  
217    AudioComponentRe 0.0  00:00.15 2     1   41+    1124K+ 24K+   1904K+ 217   1     sleeping *0[51+]       0.00000 0.00000    0   4916+    146+   869+      454+      1868+     2123+     649+       42+     22       0.0   0      0      root               N/A    N/A   N/A   N/A   N/A   N/A  
213    bootinstalld     0.0  00:00.03 2     1   24+    12K+   0B     2216K+ 213   1     sleeping *0[1+]        0.00000 0.00000    0   2845+    175+   74+       27+       525+      166+      276+       7+      1        0.0   0      0      root               N/A    N/A   N/A   N/A   N/A   N/A  
210    com.apple.CodeSi 0.0  00:01.76 2     2   19+    1388K+ 0B     1556K+ 210   1     sleeping *0[906+]      0.00000 0.00000    0   6036+    135+   8161+     3666+     103531+   8032+     8876+      2+      260      0.0   0      0      root               N/A    N/A   N/A   N/A   N/A   N/A  
209    colorsyncd       0.0  00:00.14 2     1   30+    220K+  0B     1764K+ 209   1     sleeping *0[946+]      0.00000 0.00000    0   1995+    138+   3873+     981+      8961+     2992+     1132+      2+      11       0.0   0      0      root               N/A    N/A   N/A   N/A   N/A   N/A  
203    colorsync.displa 0.0  00:01.01 2     1   41+    2276K+ 0B     1660K+ 203   1     sleeping *0[160+]      0.00000 0.00000    0   4600+    141+   5588+     1623+     22650+    13839+    6036+      31+     33       0.0   0      0      root               N/A    N/A   N/A   N/A   N/A   N/A  
202    CVMServer        0.0  00:00.45 2     2   75+    320K+  0B     1452K+ 202   1     sleeping *0[1+]        0.00000 0.00000    0   2602+    99+    16091+    4778+     17803+    14466+    7127+      1+      517      0.0   0      0      root               N/A    N/A   N/A   N/A   N/A   N/A  
201    com.apple.geod   0.0  00:03.54 4     2   61+    4632K+ 0B     3112K+ 201   1     sleeping *0[2+]        0.00000 0.00000    205 28120+   291+   921+      344+      103068+   2313+     70858+     585+    13785    0.0   0      0      _locationd         N/A    N/A   N/A   N/A   N/A   N/A  
199    com.apple.cmio.r 0.0  00:00.01 2     2   17+    8192B+ 0B     372K+  199   1     sleeping *0[1+]        0.00000 0.00000    0   576+     96+    77+       32+       253+      135+      90+        2+      2        0.0   0      0      root               N/A    N/A   N/A   N/A   N/A   N/A  
197    systemstats      0.0  00:00.62 2     1   75+    504K+  0B     964K+  53    53    sleeping  0[0]         0.00000 0.00000    0   8567+    205+   7899+     4123+     18750+    12530+    13419+     71+     1203     0.0   0      0      root               N/A    N/A   N/A   N/A   N/A   N/A  
195    nsurlstoraged    0.0  00:01.40 2     1   43+    996K+  0B     644K+  195   1     sleeping *0[62+]       0.00000 0.00000    243 7719+    147+   1084+     411+      2419+     2049+     3002+      51+     70       0.0   0      0      _nsurlstoraged     N/A    N/A   N/A   N/A   N/A   N/A  
175    mds_stores       0.0  01:58.70 6     4   97+    20M+   988K+  32M+   175   1     sleeping *0[1+]        0.00000 0.00000    0   1965635+ 8059+  290094+   137865+   1580054+  382453+   535310+    110622+ 12510    0.0   0      0      root               N/A    N/A   N/A   N/A   N/A   N/A  
174    lsd              0.0  00:00.96 2     1   84+    1128K+ 0B     800K+  174   1     sleeping *3+[13+]      0.00000 0.00000    0   12955+   333+   5109+     2034+     23606+    6360+     5926+      3554+   173      0.0   0      0      root               N/A    N/A   N/A   N/A   N/A   N/A  
173    watchdogd        0.0  00:02.96 4     1   38+    92K+   0B     508K+  173   1     sleeping *0[1+]        0.00000 0.00000    0   1663+    128+   11586+    5718+     13226+    8018+     236182+    0       107476   0.0   0      0      root               N/A    N/A   N/A   N/A   N/A   N/A  
172    mobileassetd     0.0  00:15.06 2     1   62+    5836K+ 0B     2812K+ 172   1     sleeping *0[3653+]     0.00000 0.00000    0   39595+   411+   67056+    32197+    272111+   65404+    85588+     167+    872      0.0   0      0      root               N/A    N/A   N/A   N/A   N/A   N/A  
166    sysmond          0.0  00:14.32 2     2   19+    1220K+ 0B     1048K+ 166   1     sleeping *0[46+]       0.00000 0.00000    0   12119+   133+   595474+   279460+   699661+   572120+   111484+    17+     377      0.0   0      0      root               N/A    N/A   N/A   N/A   N/A   N/A  
165    symptomsd        0.0  00:10.03 2     1   128+   2596K+ 64K+   1496K+ 165   1     sleeping *0[653+]      0.00000 0.00000    24  29521+   232+   23573+    12641+    257023+   42598+    74022+     1049+   3250     0.0   0      0      _networkd          N/A    N/A   N/A   N/A   N/A   N/A  
164    secinitd         0.0  00:00.34 2     2   41+    716K+  0B     2656K+ 164   1     sleeping *0[6+]        0.00000 0.00000    0   6408+    207+   341+      2254+     14443+    2552+     4981+      35+     110      0.0   0      0      root               N/A    N/A   N/A   N/A   N/A   N/A  
163    signpost_notific 0.0  00:02.34 2     2   108+   452K+  0B     340K+  163   1     sleeping *0[6256+]     0.00000 0.00000    0   9184+    146+   35628+    11719+    80093+    33383+    29395+     22+     758      0.0   0      0      root               N/A    N/A   N/A   N/A   N/A   N/A  
162    mDNSResponderHel 0.0  00:05.94 3     2   43+    384K+  0B     812K+  162   1     sleeping *0[1+]        0.00000 0.00000    0   2297+    139+   167498+   83795+    84821+    84004+    101531+    1+      54253    0.0   0      0      root               N/A    N/A   N/A   N/A   N/A   N/A  
161    mDNSResponder    0.0  00:12.82 5     1   85+    1652K+ 0B     1124K+ 161   1     sleeping *0[1+]        0.00000 0.00000    65  6623+    176+   18546+    15942+    759220+   24924+    123419+    197+    16218    0.0   0      0      _mdnsresponder     N/A    N/A   N/A   N/A   N/A   N/A  
160    analyticsd       0.0  00:01.35 2     1   111+   1460K+ 0B     2240K+ 160   1     sleeping *0[249+]      0.00000 0.00000    263 7168+    177+   6979+     2499+     13859+    16973+    8558+      637+    1212     0.0   0      0      _analyticsd        N/A    N/A   N/A   N/A   N/A   N/A  
159    awdd             0.0  00:01.11 2     1   105+   1020K+ 4096B+ 1040K+ 159   1     sleeping *0[322+]      0.00000 0.00000    0   6138+    179+   6163+     1534+     14936+    16080+    10036+     235+    1325     0.0   0      0      root               N/A    N/A   N/A   N/A   N/A   N/A  
158    com.apple.ifdrea 0.0  00:00.03 2     1   29+    312K+  0B     584K+  158   1     sleeping *0[8+]        0.00000 0.00000    0   2738+    156+   409+      190+      546+      542+      264+       13+     1        0.0   0      0      root               N/A    N/A   N/A   N/A   N/A   N/A  
157    airportd         0.0  00:58.00 6     4   150+   2884K+ 0B     4668K+ 157   1     sleeping *0[967+]      0.00000 0.00000    0   69497+   223+   1194146+  479423+   1902155+  1081844+  866986+    747+    10545    0.0   0      0      root               N/A    N/A   N/A   N/A   N/A   N/A  
156    powerlogd        0.0  00:00.75 2     1   47+    1380K+ 40K+   996K+  156   1     sleeping *1+[1+]       0.00000 0.00000    0   5820+    237+   1638+     1084+     9083+     4758+     6037+      255+    804      0.0   0      0      root               N/A    N/A   N/A   N/A   N/A   N/A  
155    usbd             0.0  00:00.24 2     1   61+    360K+  0B     1820K+ 155   1     sleeping  0[0]         0.00000 0.00000    0   4437+    164+   6450+     4119+     4227+     10406+    1656+      56+     12       0.0   0      0      root               N/A    N/A   N/A   N/A   N/A   N/A  
154    ethcheck         0.0  00:00.29 2     2   21+    12K+   0B     648K+  154   1     sleeping  0[0]         0.00000 0.00000    0   1460+    133+   4492+     2058+     1398+     2661+     14834+     3+      1811     0.0   0      0      root               N/A    N/A   N/A   N/A   N/A   N/A  
153    VDCAssistant     0.0  00:00.37 3     2   78+    472K+  0B     2412K+ 153   1     sleeping *0[1+]        0.00000 0.00000    262 6555+    208+   10131+    9133+     9955+     22890+    6879+      227+    77       0.0   0      0      _cmiodalassistants N/A    N/A   N/A   N/A   N/A   N/A  
152    WindowServer     0.0  53:33.86 5     2   778+   37M+   2868K+ 58M+   152   1     sleeping *0[1+]        0.00000 0.00000    88  2142317+ 27473+ 31710251+ 12486890+ 2290359+  28328765+ 15310149+  6937+   3054842  0.0   0      0      _windowserver      N/A    N/A   N/A   N/A   N/A   N/A  
151    apfsd            0.0  00:00.06 2     1   39+    380K+  0B     300K+  151   1     sleeping *0[1+]        0.00000 0.00000    0   2277+    131+   1028+     268+      460+      2176+     1084+      3+      3        0.0   0      0      root               N/A    N/A   N/A   N/A   N/A   N/A  
150    socketfilterfw   0.0  00:12.60 3     1   53+    1476K+ 0B     872K+  150   1     sleeping *0[1+]        0.00000 0.00000    0   7504+    199+   6687+     3225+     250254+   19504+    31153+     13+     184      0.0   0      0      root               N/A    N/A   N/A   N/A   N/A   N/A  
149    cron             0.0  00:00.31 1     0   19+    152K+  0B     308K+  149   1     sleeping *0[1+]        0.00000 0.00000    0   3209+    1822+  3447+     1716+     5013+     1820+     2272+      2+      906      0.0   0      0      root               N/A    N/A   N/A   N/A   N/A   N/A  
146    nsurlsessiond    0.0  00:07.17 2     1   96+    11M+   0B     5680K+ 146   1     sleeping *51+[233+]    0.00000 0.00000    242 35221+   245+   16050+    6550+     168065+   26230+    110606+    544+    17500    0.0   0      0      _nsurlsessiond     N/A    N/A   N/A   N/A   N/A   N/A  
122    ctkd             0.0  00:00.03 2     2   22+    8192B+ 0B     2100K+ 122   1     sleeping *0[6+]        0.00000 0.00000    259 2714+    161+   91+       37+       542+      171+      246+       28+     1        0.0   0      0      _ctkd              N/A    N/A   N/A   N/A   N/A   N/A  
120    aslmanager       0.0  00:00.19 2     2   23+    704K+  0B     660K+  120   1     sleeping *0[1+]        0.00000 0.00000    0   2204+    142+   166+      86+       3843+     234+      1445+      19+     4        0.0   0      0      root               N/A    N/A   N/A   N/A   N/A   N/A  
119    com.apple.ctkpcs 0.0  00:00.02 2     2   25+    12K+   0B     800K+  119   1     sleeping *0[4+]        0.00000 0.00000    0   2367+    156+   100+      36+       456+      170+      165+       64+     0        0.0   0      0      root               N/A    N/A   N/A   N/A   N/A   N/A  
117    nehelper         0.0  00:00.89 2     1   52+    888K+  0B     1752K+ 117   1     sleeping *0[1009+]     0.00000 0.00000    0   8868+    168+   10687+    4328+     34047+    12085+    10494+     481+    788      0.0   0      0      root               N/A    N/A   N/A   N/A   N/A   N/A  
116    com.apple.audio. 0.0  00:01.12 2     2   40+    620K+  0B     988K+  116   1     sleeping *0[3+]        0.00000 0.00000    202 5073+    143+   367+      2167+     69651+    2504+     9189+      1+      126      0.0   0      0      _coreaudiod        N/A    N/A   N/A   N/A   N/A   N/A  
111    coreaudiod       0.0  17:52.67 6     1   241+   1692K+ 0B     2108K+ 111   1     sleeping *0[1+]        0.00000 0.00000    202 57093+   258+   2687623+  213381+   4552073+  4907062+  4305857+   756+    1173879  0.0   0      0      _coreaudiod        N/A    N/A   N/A   N/A   N/A   N/A  
109    trustd           0.0  00:33.28 5     2   109+   3852K+ 1400K+ 5284K+ 109   1     sleeping *1+[486+]     0.00000 0.00000    0   46350+   323+   47506+    12461+    832611+   253076+   87132+     501+    2615     0.0   0      0      root               N/A    N/A   N/A   N/A   N/A   N/A  
106    coreservicesd    0.0  00:14.23 4     1   236+   2880K+ 0B     3484K+ 106   1     sleeping *0[1+]        0.00000 0.00000    0   9359+    203+   199164+   37638+    303127+   305541+   170131+    162+    11403    0.0   0      0      root               N/A    N/A   N/A   N/A   N/A   N/A  
105    authd            0.0  00:02.45 3     3   89+    3336K+ 48K+   3180K+ 105   1     sleeping *0[584+]      0.00000 0.00000    0   10658+   195+   12407+    10720+    49762+    29426+    17028+     117+    228      0.0   0      0      root               N/A    N/A   N/A   N/A   N/A   N/A  
103    cfprefsd         0.0  00:08.03 2     2   574+   1496K+ 0B     244K+  103   1     sleeping *0[11380+]    0.00000 0.00000    0   40850+   102+   97885+    30494+    272867+   130989+   86710+     29+     2829     0.0   0      0      root               N/A    N/A   N/A   N/A   N/A   N/A  
102    distnoted        0.0  00:01.34 2     1   144+   1556K+ 0B     1704K+ 102   1     sleeping *0[1+]        0.00000 0.00000    241 5203+    103+   11609+    3762+     126720+   11028+    9173+      10+     269      0.0   0      0      _distnote          N/A    N/A   N/A   N/A   N/A   N/A  
101    notifyd          0.0  00:53.21 3     3   339+   1600K+ 0B     168K+  101   1     sleeping *0[1+]        0.00000 0.00000    0   330693+  84+    1802681+  472225+   1832153+  2697008+  672298+    6+      7310     0.0   0      0      root               N/A    N/A   N/A   N/A   N/A   N/A  
100    amfid            0.0  00:01.02 2     2   39+    616K+  0B     1656K+ 100   1     sleeping *0[1+]        0.00000 0.00000    0   5477+    170+   425+      3245+     27392+    3866+     12671+     402+    157      0.0   0      0      root               N/A    N/A   N/A   N/A   N/A   N/A  
99     AirPlayXPCHelper 0.0  00:38.36 5     5   202+   1444K+ 0B     1836K+ 99    1     sleeping *0[1+]        0.00000 0.00000    0   21367+   203+   697074+   346561+   886849+   371133+   393649+    1003+   59516    0.0   0      0      root               N/A    N/A   N/A   N/A   N/A   N/A  
98     corebrightnessd  0.0  00:00.87 2     1   153+   376K+  0B     3124K+ 98    1     sleeping *0[1+]        0.00000 0.00000    0   7364+    174+   30912+    16811+    14478+    50482+    13315+     325+    193      0.0   0      0      root               N/A    N/A   N/A   N/A   N/A   N/A  
97     hidd             0.0  07:10.88 5     1   217+   1636K+ 0B     1064K+ 97    1     sleeping *0[1+]        0.00000 0.00000    261 574772+  216+   7803561+  4773587+  4590220+  9453592+  4226809+   220+    9690     0.0   0      0      _hidd              N/A    N/A   N/A   N/A   N/A   N/A  
96     bluetoothd       0.0  00:03.26 3     1   171+   2296K+ 0B     2056K+ 96    1     sleeping *0[1+]        0.00000 0.00000    0   17635+   235+   80216+    41986+    70021+    163986+   35380+     931+    130      0.0   0      0      root               N/A    N/A   N/A   N/A   N/A   N/A  
94     KernelEventAgent 0.0  00:00.02 3     1   25+    196K+  0B     396K+  94    1     sleeping *0[1+]        0.00000 0.00000    0   1650+    128+   186+      22+       1529+     765+      424+       11+     0        0.0   0      0      root               N/A    N/A   N/A   N/A   N/A   N/A  
93     revisiond        0.0  00:01.49 3     1   64+    1340K+ 192K+  4032K+ 93    1     sleeping *0[455+]      0.00000 0.00000    0   13081+   191+   3320+     1083+     21271+    8888+     9843+      287+    352      0.0   0      0      root               N/A    N/A   N/A   N/A   N/A   N/A  
92     logind           0.0  00:00.07 2     1   65+    128K+  0B     860K+  92    1     sleeping *0[1+]        0.00000 0.00000    0   4053+    456+   869+      295+      1330+     1227+     1085+      138+    5        0.0   0      0      root               N/A    N/A   N/A   N/A   N/A   N/A  
91     loginwindow      0.0  00:30.61 2     1   568+   11M+   0B     22M+   91    1     sleeping *0[1918+]     0.00000 0.00000    501 131807+  3140+  166970+   51510+    202054+   338638+   243163+    2487+   12572    0.0   0      0      lawrencechin       N/A    N/A   N/A   N/A   N/A   N/A  
88     dasd             0.0  00:10.58 2     1   55+    2040K+ 0B     1128K+ 88    1     sleeping *0[3955+]     0.00000 0.00000    0   18293+   220+   42076+    7270+     173056+   56703+    65919+     292+    3353     0.0   0      0      root               N/A    N/A   N/A   N/A   N/A   N/A  
87     displaypolicyd   0.0  00:00.09 3     1   45+    388K+  0B     592K+  87    1     sleeping *0[1+]        0.00000 0.00000    244 2978+    165+   13209+    5423+     1020+     9096+     924+       25+     129      0.0   0      0      _displaypolicyd    N/A    N/A   N/A   N/A   N/A   N/A  
86     autofsd          0.0  00:00.05 2     2   22+    152K+  0B     524K+  86    1     sleeping *0[1+]        0.00000 0.00000    0   1968+    163+   75+       57+       640+      169+      424+       3+      15       0.0   0      0      root               N/A    N/A   N/A   N/A   N/A   N/A  
85     locationd        0.0  01:04.42 6     2   134+   5048K+ 128K+  1740K+ 85    1     sleeping *0[3642+]     0.00000 0.00000    205 89705+   345+   127100+   49681+    1175941+  313481+   306908+    1811+   21267    0.0   0      0      _locationd         N/A    N/A   N/A   N/A   N/A   N/A  
83     usbmuxd          0.0  00:09.61 3     1   37+    400K+  0B     1068K+ 83    1     sleeping *0[1+]        0.00000 0.00000    213 4188+    167+   15858+    6144+     125114+   78310+    34264+     326+    89       0.0   0      0      _usbmuxd           N/A    N/A   N/A   N/A   N/A   N/A  
82     securityd        0.0  00:06.42 5     1   182+   1880K+ 0B     2488K+ 82    1     sleeping *0[1+]        0.00000 0.00000    0   22510+   357+   58449+    12969+    138112+   267142+   60491+     432+    297      0.0   0      0      root               N/A    N/A   N/A   N/A   N/A   N/A  
81     timed            0.0  00:00.92 2     1   46+    1104K+ 0B     400K+  81    1     sleeping *0[1+]        0.00000 0.00000    266 5144+    164+   7009+     1440+     21119+    9214+     6786+      81+     174      0.0   0      0      _timed             N/A    N/A   N/A   N/A   N/A   N/A  
80     launchservicesd  0.0  00:29.63 2     2   369+   3196K+ 0B     1688K+ 80    1     sleeping *0[39869+]    0.00000 0.00000    0   74128+   183+   589582+   195305+   683766+   450421+   247288+    123+    2185     0.0   0      0      root               N/A    N/A   N/A   N/A   N/A   N/A  
79     nbstated         0.0  00:00.02 2     1   22+    8192B+ 0B     1940K+ 79    1     sleeping  0[0]         0.00000 0.00000    0   1669+    129+   54+       22+       1584+     127+      204+       2+      0        0.0   0      0      root               N/A    N/A   N/A   N/A   N/A   N/A  
77     opendirectoryd   0.0  01:06.76 8     8   1125+  4024K+ 64K+   3728K+ 77    1     sleeping *0[1+]        0.00000 0.00000    0   108805+  195+   378253+   184606+   3333985+  461194+   1125411+   2479+   16833    0.0   0      0      root               N/A    N/A   N/A   N/A   N/A   N/A  
74     coreduetd        0.0  00:24.55 2     1   153+   5324K+ 1092K+ 5424K+ 74    1     sleeping *0[6560+]     0.00000 0.00000    0   66815+   571+   88064+    21993+    542735+   222056+   149620+    3480+   4440     0.0   0      0      root               N/A    N/A   N/A   N/A   N/A   N/A  
73     backupd-helper   0.0  00:00.43 2     1   57+    980K+  0B     776K+  73    1     sleeping  0[0]         0.00000 0.00000    0   11786+   203+   3061+     899+      13160+    7224+     5176+      1208+   188      0.0   0      0      root               N/A    N/A   N/A   N/A   N/A   N/A  
70     diskarbitrationd 0.0  00:03.17 2     1   277+   1132K+ 0B     424K+  70    1     sleeping *0[1+]        0.00000 0.00000    0   31844+   5047+  99386+    27315+    48712+    181617+   23336+     165+    28       0.0   0      0      root               N/A    N/A   N/A   N/A   N/A   N/A  
69     iconservicesagen 0.0  00:00.89 2     2   35+    1708K+ 0B     3164K+ 69    1     sleeping *0[1425+]     0.00000 0.00000    0   8553+    169+   6132+     1656+     43992+    6485+     8040+      27+     34       0.0   0      0      root               N/A    N/A   N/A   N/A   N/A   N/A  
68     iconservicesd    0.0  00:00.08 2     2   43+    460K+  0B     1600K+ 68    1     sleeping *0[58+]       0.00000 0.00000    240 3222+    146+   581+      248+      1866+     666+      929+       2+      50       0.0   0      0      _iconservices      N/A    N/A   N/A   N/A   N/A   N/A  
67     mds              0.0  01:57.10 6     3   498+   21M+   0B     13M+   67    1     sleeping *0[1+]        0.00000 0.00000    0   708083+  3225+  360578+   102881+   4325738+  403845+   1480916+   1387+   33398    0.0   0      0      root               N/A    N/A   N/A   N/A   N/A   N/A  
66     warmd            0.0  00:02.71 4     3   50+    1048K+ 0B     3348K+ 66    1     sleeping *0[1+]        0.00000 0.00000    0   9038+    170+   3423+     1830+     110190+   4288+     77013+     124+    9887     0.0   0      0      root               N/A    N/A   N/A   N/A   N/A   N/A  
61     360Daemon        0.0  00:00.06 2     1   39+    208K+  0B     820K+  61    1     sleeping *0[1+]        0.00000 0.00000    0   3462+    165+   2275+     1095+     882+      2315+     510+       23+     5        0.0   0      0      root               N/A    N/A   N/A   N/A   N/A   N/A  
60     keybagd          0.0  00:00.01 2     2   21+    12K+   0B     608K+  60    1     sleeping *0[1+]        0.00000 0.00000    0   1392+    137+   67+       24+       348+      138+      353+       48+     0        0.0   0      0      root               N/A    N/A   N/A   N/A   N/A   N/A  
59     logd             0.0  00:52.31 4     4   685+   15M+   0B     8280K+ 59    1     sleeping *0[1+]        0.00000 0.00000    0   277786+  148+   261114+   226958+   1400490+  321919+   781609+    114452+ 7785     0.0   0      0      root               N/A    N/A   N/A   N/A   N/A   N/A  
56     powerd           0.0  00:38.11 2     1   102+   1168K+ 0B     1784K+ 56    1     sleeping *0[1+]        0.00000 0.00000    0   105949+  163+   454070+   48778+    649273+   1066426+  811210+    525+    11439    0.0   0      0      root               N/A    N/A   N/A   N/A   N/A   N/A  
55     configd          0.0  00:45.70 8     1   402+   1800K+ 0B     2052K+ 55    1     sleeping *0[1+]        0.00000 0.00000    0   404685+  307+   922888+   65024+    488136+   1797108+  264107+    697+    2123     0.0   0      0      root               N/A    N/A   N/A   N/A   N/A   N/A  
53     systemstats      0.0  00:12.55 3     2   124+   3228K+ 0B     3500K+ 53    1     sleeping *0[8364+]     0.00000 0.00000    0   29611+   273+   256119+   122940+   560266+   153867+   571897+    514+    320730   0.0   0      0      root               N/A    N/A   N/A   N/A   N/A   N/A  
52     appleeventsd     0.0  00:01.52 2     2   136+   824K+  0B     2608K+ 52    1     sleeping *0[401+]      0.00000 0.00000    55  7499+    174+   4245+     4025+     83362+    9260+     14856+     32+     276      0.0   0      0      _appleevents       N/A    N/A   N/A   N/A   N/A   N/A  
51     karabiner_grabbe 0.0  04:40.51 5     1   109+   932K+  0B     816K+  51    1     sleeping *0[1+]        0.00000 0.00000    0   87189+   158+   3980097+  1312282+  2202729+  6637668+  2927376+   250+    156480   0.0   0      0      root               N/A    N/A   N/A   N/A   N/A   N/A  
49     mediaremoted     0.0  00:07.54 2     1   123+   2840K+ 0B     912K+  49    1     sleeping *63+[2+]      0.00000 0.00000    0   16071+   256+   56584+    17330+    179207+   129899+   110623+    790+    10113    0.0   0      0      root               N/A    N/A   N/A   N/A   N/A   N/A  
47     fseventsd        0.0  00:56.93 10    1   257+   2516K+ 0B     4568K+ 47    1     sleeping *0[1+]        0.00000 0.00000    0   93801+   132+   44709+    3334+     2110404+  193264+   499122+    25+     42973    0.0   0      0      root               N/A    N/A   N/A   N/A   N/A   N/A  
46     kextd            0.0  00:11.28 2     1   70+    4428K+ 0B     7808K+ 46    1     sleeping *0[1+]        0.00000 0.00000    0   36208+   649+   10028+    6459+     185466+   19698+    38439+     4900+   207      0.0   0      0      root               N/A    N/A   N/A   N/A   N/A   N/A  
44     uninstalld       0.0  00:04.73 2     1   21+    264K+  0B     552K+  44    1     sleeping *0[1+]        0.00000 0.00000    0   19230+   152+   8955+     22+       98763+    35752+    78277+     12+     15693    0.0   0      0      root               N/A    N/A   N/A   N/A   N/A   N/A  
41     UserEventAgent   0.0  00:12.52 4     1   552+   2540K+ 0B     1232K+ 41    1     sleeping *0[1+]        0.00000 0.00000    0   30282+   261+   59685+    33499+    280925+   158745+   146626+    509+    10552    0.0   0      0      root               N/A    N/A   N/A   N/A   N/A   N/A  
40     syslogd          0.0  00:11.68 4     4   81+    680K+  0B     852K+  40    1     sleeping *0[4147+]     0.00000 0.00000    0   58368+   87+    27746+    2784+     507449+   57778+    168576+    22+     19073    0.0   0      0      root               N/A    N/A   N/A   N/A   N/A   N/A  
1      launchd          0.0  04:07.92 3     3   2648+  12M+   0B     7420K+ 1     0     sleeping  0[0]         0.00000 0.00000    0   136520+  10594+ 1534778+  429884+   3669990+  2823599+  783947+    859+    16509    0.0   0      0      root               N/A    N/A   N/A   N/A   N/A   N/A  
0      kernel_task      0.0  92:56.67 137/2 0   2+     565M+  0B     0B     0     0     running   0[0]         0.00000 0.00000    0   77696+   0      52671989+ 47682517+ 0         0         174281270+ 0       20015394 0.0   0      0      root               N/A    N/A   N/A   N/A   N/A   N/A  
